chacha20_cycle_tb.vcd
$date
	Thu Jul 24 12:08:18 2025
$end
$version
	Icarus Verilog
$end
$timescale
	1ps
$end
$scope module tb_ChaCha20 $end
$var wire 512 ! out_state_encrypt [511:0] $end
$var wire 512 " out_state_decrypt [511:0] $end
$var wire 1 # done_encrypt $end
$var wire 1 $ done_decrypt $end
$var wire 512 % debug_s_round_result_enc [511:0] $end
$var wire 512 & debug_s_round_result_dec [511:0] $end
$var wire 512 ' debug_s_enc [511:0] $end
$var wire 512 ( debug_s_dec [511:0] $end
$var wire 512 ) debug_s_col_out_enc [511:0] $end
$var wire 512 * debug_s_col_out_dec [511:0] $end
$var wire 5 + debug_round_count_enc [4:0] $end
$var wire 5 , debug_round_count_dec [4:0] $end
$var wire 1 - debug_is_col_round_enc $end
$var wire 1 . debug_is_col_round_dec $end
$var wire 4 / debug_fsm_state_enc [3:0] $end
$var wire 4 0 debug_fsm_state_dec [3:0] $end
$var wire 1 1 busy_encrypt $end
$var wire 1 2 busy_decrypt $end
$var reg 1 3 clk $end
$var reg 32 4 in_counter [31:0] $end
$var reg 256 5 in_key [255:0] $end
$var reg 96 6 in_nonce [95:0] $end
$var reg 512 7 in_state_decrypt [511:0] $end
$var reg 512 8 in_state_encrypt [511:0] $end
$var reg 1 9 rst_n $end
$var reg 1 : start $end
$var reg 1 ; start_decrypt_signal $end
$scope module UUT_DECRYPT $end
$var wire 1 2 busy $end
$var wire 1 3 clk $end
$var wire 4 < debug_fsm_state [3:0] $end
$var wire 1 . debug_is_col_round $end
$var wire 5 = debug_round_count [4:0] $end
$var wire 1 $ done $end
$var wire 32 > in_counter [31:0] $end
$var wire 256 ? in_key [255:0] $end
$var wire 96 @ in_nonce [95:0] $end
$var wire 512 A in_state [511:0] $end
$var wire 512 B out_state [511:0] $end
$var wire 1 9 rst_n $end
$var wire 1 ; start $end
$var wire 512 C debug_s_round_result [511:0] $end
$var wire 512 D debug_s_col_out [511:0] $end
$var wire 512 E debug_s [511:0] $end
$var parameter 32 F C0 $end
$var parameter 32 G C1 $end
$var parameter 32 H C2 $end
$var parameter 32 I C3 $end
$var parameter 32 J NUM_DOUBLE_ROUNDS $end
$var parameter 4 K S_DONE_PULSE $end
$var parameter 4 L S_GENERATE_OUTPUT $end
$var parameter 4 M S_IDLE $end
$var parameter 4 N S_INIT_AND_COPY $end
$var parameter 4 O S_RUN_ROUNDS $end
$var reg 1 P busy_reg $end
$var reg 4 Q current_fsm_state [3:0] $end
$var reg 1 R current_round_is_col $end
$var reg 1 S done_reg $end
$var reg 512 T full_keystream_block_temp [511:0] $end
$var reg 4 U next_fsm_state [3:0] $end
$var reg 512 V original_state_copy [511:0] $end
$var reg 512 W out_state_reg [511:0] $end
$var reg 5 X round_count [4:0] $end
$scope module U_QR_COL_0 $end
$var wire 32 Y in_a [31:0] $end
$var wire 32 Z in_b [31:0] $end
$var wire 32 [ in_c [31:0] $end
$var wire 32 \ in_d [31:0] $end
$var reg 32 ] out_a [31:0] $end
$var reg 32 ^ out_b [31:0] $end
$var reg 32 _ out_c [31:0] $end
$var reg 32 ` out_d [31:0] $end
$scope begin $unm_blk_25 $end
$var reg 32 a a [31:0] $end
$var reg 32 b b [31:0] $end
$var reg 32 c c [31:0] $end
$var reg 32 d d [31:0] $end
$upscope $end
$upscope $end
$scope module U_QR_COL_1 $end
$var wire 32 e in_a [31:0] $end
$var wire 32 f in_b [31:0] $end
$var wire 32 g in_c [31:0] $end
$var wire 32 h in_d [31:0] $end
$var reg 32 i out_a [31:0] $end
$var reg 32 j out_b [31:0] $end
$var reg 32 k out_c [31:0] $end
$var reg 32 l out_d [31:0] $end
$scope begin $unm_blk_25 $end
$var reg 32 m a [31:0] $end
$var reg 32 n b [31:0] $end
$var reg 32 o c [31:0] $end
$var reg 32 p d [31:0] $end
$upscope $end
$upscope $end
$scope module U_QR_COL_2 $end
$var wire 32 q in_a [31:0] $end
$var wire 32 r in_b [31:0] $end
$var wire 32 s in_c [31:0] $end
$var wire 32 t in_d [31:0] $end
$var reg 32 u out_a [31:0] $end
$var reg 32 v out_b [31:0] $end
$var reg 32 w out_c [31:0] $end
$var reg 32 x out_d [31:0] $end
$scope begin $unm_blk_25 $end
$var reg 32 y a [31:0] $end
$var reg 32 z b [31:0] $end
$var reg 32 { c [31:0] $end
$var reg 32 | d [31:0] $end
$upscope $end
$upscope $end
$scope module U_QR_COL_3 $end
$var wire 32 } in_a [31:0] $end
$var wire 32 ~ in_b [31:0] $end
$var wire 32 !" in_c [31:0] $end
$var wire 32 "" in_d [31:0] $end
$var reg 32 #" out_a [31:0] $end
$var reg 32 $" out_b [31:0] $end
$var reg 32 %" out_c [31:0] $end
$var reg 32 &" out_d [31:0] $end
$scope begin $unm_blk_25 $end
$var reg 32 '" a [31:0] $end
$var reg 32 (" b [31:0] $end
$var reg 32 )" c [31:0] $end
$var reg 32 *" d [31:0] $end
$upscope $end
$upscope $end
$scope module U_QR_DIAG_0 $end
$var wire 32 +" in_a [31:0] $end
$var wire 32 ," in_b [31:0] $end
$var wire 32 -" in_c [31:0] $end
$var wire 32 ." in_d [31:0] $end
$var reg 32 /" out_a [31:0] $end
$var reg 32 0" out_b [31:0] $end
$var reg 32 1" out_c [31:0] $end
$var reg 32 2" out_d [31:0] $end
$scope begin $unm_blk_25 $end
$var reg 32 3" a [31:0] $end
$var reg 32 4" b [31:0] $end
$var reg 32 5" c [31:0] $end
$var reg 32 6" d [31:0] $end
$upscope $end
$upscope $end
$scope module U_QR_DIAG_1 $end
$var wire 32 7" in_a [31:0] $end
$var wire 32 8" in_b [31:0] $end
$var wire 32 9" in_c [31:0] $end
$var wire 32 :" in_d [31:0] $end
$var reg 32 ;" out_a [31:0] $end
$var reg 32 <" out_b [31:0] $end
$var reg 32 =" out_c [31:0] $end
$var reg 32 >" out_d [31:0] $end
$scope begin $unm_blk_25 $end
$var reg 32 ?" a [31:0] $end
$var reg 32 @" b [31:0] $end
$var reg 32 A" c [31:0] $end
$var reg 32 B" d [31:0] $end
$upscope $end
$upscope $end
$scope module U_QR_DIAG_2 $end
$var wire 32 C" in_a [31:0] $end
$var wire 32 D" in_b [31:0] $end
$var wire 32 E" in_c [31:0] $end
$var wire 32 F" in_d [31:0] $end
$var reg 32 G" out_a [31:0] $end
$var reg 32 H" out_b [31:0] $end
$var reg 32 I" out_c [31:0] $end
$var reg 32 J" out_d [31:0] $end
$scope begin $unm_blk_25 $end
$var reg 32 K" a [31:0] $end
$var reg 32 L" b [31:0] $end
$var reg 32 M" c [31:0] $end
$var reg 32 N" d [31:0] $end
$upscope $end
$upscope $end
$scope module U_QR_DIAG_3 $end
$var wire 32 O" in_a [31:0] $end
$var wire 32 P" in_b [31:0] $end
$var wire 32 Q" in_c [31:0] $end
$var wire 32 R" in_d [31:0] $end
$var reg 32 S" out_a [31:0] $end
$var reg 32 T" out_b [31:0] $end
$var reg 32 U" out_c [31:0] $end
$var reg 32 V" out_d [31:0] $end
$scope begin $unm_blk_25 $end
$var reg 32 W" a [31:0] $end
$var reg 32 X" b [31:0] $end
$var reg 32 Y" c [31:0] $end
$var reg 32 Z" d [31:0] $end
$upscope $end
$upscope $end
$scope begin $ivl_for_loop0 $end
$var integer 32 [" i [31:0] $end
$upscope $end
$scope begin $ivl_for_loop1 $end
$var integer 32 \" i [31:0] $end
$upscope $end
$scope begin $ivl_for_loop2 $end
$var integer 32 ]" i [31:0] $end
$upscope $end
$upscope $end
$scope module UUT_ENCRYPT $end
$var wire 1 1 busy $end
$var wire 1 3 clk $end
$var wire 4 ^" debug_fsm_state [3:0] $end
$var wire 1 - debug_is_col_round $end
$var wire 5 _" debug_round_count [4:0] $end
$var wire 1 # done $end
$var wire 32 `" in_counter [31:0] $end
$var wire 256 a" in_key [255:0] $end
$var wire 96 b" in_nonce [95:0] $end
$var wire 512 c" in_state [511:0] $end
$var wire 512 d" out_state [511:0] $end
$var wire 1 9 rst_n $end
$var wire 1 : start $end
$var wire 512 e" debug_s_round_result [511:0] $end
$var wire 512 f" debug_s_col_out [511:0] $end
$var wire 512 g" debug_s [511:0] $end
$var parameter 32 h" C0 $end
$var parameter 32 i" C1 $end
$var parameter 32 j" C2 $end
$var parameter 32 k" C3 $end
$var parameter 32 l" NUM_DOUBLE_ROUNDS $end
$var parameter 4 m" S_DONE_PULSE $end
$var parameter 4 n" S_GENERATE_OUTPUT $end
$var parameter 4 o" S_IDLE $end
$var parameter 4 p" S_INIT_AND_COPY $end
$var parameter 4 q" S_RUN_ROUNDS $end
$var reg 1 r" busy_reg $end
$var reg 4 s" current_fsm_state [3:0] $end
$var reg 1 t" current_round_is_col $end
$var reg 1 u" done_reg $end
$var reg 512 v" full_keystream_block_temp [511:0] $end
$var reg 4 w" next_fsm_state [3:0] $end
$var reg 512 x" original_state_copy [511:0] $end
$var reg 512 y" out_state_reg [511:0] $end
$var reg 5 z" round_count [4:0] $end
$scope module U_QR_COL_0 $end
$var wire 32 {" in_a [31:0] $end
$var wire 32 |" in_b [31:0] $end
$var wire 32 }" in_c [31:0] $end
$var wire 32 ~" in_d [31:0] $end
$var reg 32 !# out_a [31:0] $end
$var reg 32 "# out_b [31:0] $end
$var reg 32 ## out_c [31:0] $end
$var reg 32 $# out_d [31:0] $end
$scope begin $unm_blk_25 $end
$var reg 32 %# a [31:0] $end
$var reg 32 &# b [31:0] $end
$var reg 32 '# c [31:0] $end
$var reg 32 (# d [31:0] $end
$upscope $end
$upscope $end
$scope module U_QR_COL_1 $end
$var wire 32 )# in_a [31:0] $end
$var wire 32 *# in_b [31:0] $end
$var wire 32 +# in_c [31:0] $end
$var wire 32 ,# in_d [31:0] $end
$var reg 32 -# out_a [31:0] $end
$var reg 32 .# out_b [31:0] $end
$var reg 32 /# out_c [31:0] $end
$var reg 32 0# out_d [31:0] $end
$scope begin $unm_blk_25 $end
$var reg 32 1# a [31:0] $end
$var reg 32 2# b [31:0] $end
$var reg 32 3# c [31:0] $end
$var reg 32 4# d [31:0] $end
$upscope $end
$upscope $end
$scope module U_QR_COL_2 $end
$var wire 32 5# in_a [31:0] $end
$var wire 32 6# in_b [31:0] $end
$var wire 32 7# in_c [31:0] $end
$var wire 32 8# in_d [31:0] $end
$var reg 32 9# out_a [31:0] $end
$var reg 32 :# out_b [31:0] $end
$var reg 32 ;# out_c [31:0] $end
$var reg 32 <# out_d [31:0] $end
$scope begin $unm_blk_25 $end
$var reg 32 =# a [31:0] $end
$var reg 32 ># b [31:0] $end
$var reg 32 ?# c [31:0] $end
$var reg 32 @# d [31:0] $end
$upscope $end
$upscope $end
$scope module U_QR_COL_3 $end
$var wire 32 A# in_a [31:0] $end
$var wire 32 B# in_b [31:0] $end
$var wire 32 C# in_c [31:0] $end
$var wire 32 D# in_d [31:0] $end
$var reg 32 E# out_a [31:0] $end
$var reg 32 F# out_b [31:0] $end
$var reg 32 G# out_c [31:0] $end
$var reg 32 H# out_d [31:0] $end
$scope begin $unm_blk_25 $end
$var reg 32 I# a [31:0] $end
$var reg 32 J# b [31:0] $end
$var reg 32 K# c [31:0] $end
$var reg 32 L# d [31:0] $end
$upscope $end
$upscope $end
$scope module U_QR_DIAG_0 $end
$var wire 32 M# in_a [31:0] $end
$var wire 32 N# in_b [31:0] $end
$var wire 32 O# in_c [31:0] $end
$var wire 32 P# in_d [31:0] $end
$var reg 32 Q# out_a [31:0] $end
$var reg 32 R# out_b [31:0] $end
$var reg 32 S# out_c [31:0] $end
$var reg 32 T# out_d [31:0] $end
$scope begin $unm_blk_25 $end
$var reg 32 U# a [31:0] $end
$var reg 32 V# b [31:0] $end
$var reg 32 W# c [31:0] $end
$var reg 32 X# d [31:0] $end
$upscope $end
$upscope $end
$scope module U_QR_DIAG_1 $end
$var wire 32 Y# in_a [31:0] $end
$var wire 32 Z# in_b [31:0] $end
$var wire 32 [# in_c [31:0] $end
$var wire 32 \# in_d [31:0] $end
$var reg 32 ]# out_a [31:0] $end
$var reg 32 ^# out_b [31:0] $end
$var reg 32 _# out_c [31:0] $end
$var reg 32 `# out_d [31:0] $end
$scope begin $unm_blk_25 $end
$var reg 32 a# a [31:0] $end
$var reg 32 b# b [31:0] $end
$var reg 32 c# c [31:0] $end
$var reg 32 d# d [31:0] $end
$upscope $end
$upscope $end
$scope module U_QR_DIAG_2 $end
$var wire 32 e# in_a [31:0] $end
$var wire 32 f# in_b [31:0] $end
$var wire 32 g# in_c [31:0] $end
$var wire 32 h# in_d [31:0] $end
$var reg 32 i# out_a [31:0] $end
$var reg 32 j# out_b [31:0] $end
$var reg 32 k# out_c [31:0] $end
$var reg 32 l# out_d [31:0] $end
$scope begin $unm_blk_25 $end
$var reg 32 m# a [31:0] $end
$var reg 32 n# b [31:0] $end
$var reg 32 o# c [31:0] $end
$var reg 32 p# d [31:0] $end
$upscope $end
$upscope $end
$scope module U_QR_DIAG_3 $end
$var wire 32 q# in_a [31:0] $end
$var wire 32 r# in_b [31:0] $end
$var wire 32 s# in_c [31:0] $end
$var wire 32 t# in_d [31:0] $end
$var reg 32 u# out_a [31:0] $end
$var reg 32 v# out_b [31:0] $end
$var reg 32 w# out_c [31:0] $end
$var reg 32 x# out_d [31:0] $end
$scope begin $unm_blk_25 $end
$var reg 32 y# a [31:0] $end
$var reg 32 z# b [31:0] $end
$var reg 32 {# c [31:0] $end
$var reg 32 |# d [31:0] $end
$upscope $end
$upscope $end
$scope begin $ivl_for_loop0 $end
$var integer 32 }# i [31:0] $end
$upscope $end
$scope begin $ivl_for_loop1 $end
$var integer 32 ~# i [31:0] $end
$upscope $end
$scope begin $ivl_for_loop2 $end
$var integer 32 !$ i [31:0] $end
$upscope $end
$upscope $end
$upscope $end
$enddefinitions $end
$comment Show the parameter values. $end
$dumpall
b10 q"
b1 p"
b0 o"
b11 n"
b100 m"
b1010 l"
b1101011001000000110010101110100 k"
b1111001011000100010110100110010 j"
b110011001000000110010001101110 i"
b1100001011100000111100001100101 h"
b10 O
b1 N
b0 M
b11 L
b100 K
b1010 J
b1101011001000000110010101110100 I
b1111001011000100010110100110010 H
b110011001000000110010001101110 G
b1100001011100000111100001100101 F
$end
#0
$dumpvars
b0 !$
b0 ~#
b10000 }#
b0 |#
b0 {#
b0 z#
b0 y#
b0 x#
b0 w#
b0 v#
b0 u#
b0 t#
b0 s#
b0 r#
b0 q#
b0 p#
b0 o#
b0 n#
b0 m#
b0 l#
b0 k#
b0 j#
b0 i#
b0 h#
b0 g#
b0 f#
b0 e#
b0 d#
b0 c#
b0 b#
b0 a#
b0 `#
b0 _#
b0 ^#
b0 ]#
b0 \#
b0 [#
b0 Z#
b0 Y#
b0 X#
b0 W#
b0 V#
b0 U#
b0 T#
b0 S#
b0 R#
b0 Q#
b0 P#
b0 O#
b0 N#
b0 M#
b0 L#
b0 K#
b0 J#
b0 I#
b0 H#
b0 G#
b0 F#
b0 E#
b0 D#
b0 C#
b0 B#
b0 A#
b0 @#
b0 ?#
b0 >#
b0 =#
b0 <#
b0 ;#
b0 :#
b0 9#
b0 8#
b0 7#
b0 6#
b0 5#
b0 4#
b0 3#
b0 2#
b0 1#
b0 0#
b0 /#
b0 .#
b0 -#
b0 ,#
b0 +#
b0 *#
b0 )#
b0 (#
b0 '#
b0 &#
b0 %#
b0 $#
b0 ##
b0 "#
b0 !#
b0 ~"
b0 }"
b0 |"
b0 {"
b0 z"
b0 y"
b0 x"
b0 w"
b0 v"
0u"
1t"
b0 s"
0r"
b0 g"
b0 f"
b0 e"
b0 d"
b10001000100001101000010010000010100010001000011010000100100000101000100010000110100001001000001010001000100001101000010010000010100010001000011010000100100000101000100010000110100001001000001010001000100001101000010010000010100010001000011010000100100000101000100010000110100001001000001010001000100001101000010010000010100010001000011010000100100000101000100010000110100001001000001010001000100001101000010010000010100010001000011010000100100000101000100010000110100001001000001 c"
b10010000000000000000000000000100101000000000000000000000000000000000 b"
b1000000100000001100000100000001010000011000000111000010000000100100001010000010110000110000001101000011100000111100010000000100010001001000010011000101000001010100010110000101110001100000011001000110100001101100011100000111010001111000011111 a"
b1 `"
b0 _"
b0 ^"
b0 ]"
b0 \"
b10000 ["
b0 Z"
b0 Y"
b0 X"
b0 W"
b0 V"
b0 U"
b0 T"
b0 S"
b0 R"
b0 Q"
b0 P"
b0 O"
b0 N"
b0 M"
b0 L"
b0 K"
b0 J"
b0 I"
b0 H"
b0 G"
b0 F"
b0 E"
b0 D"
b0 C"
b0 B"
b0 A"
b0 @"
b0 ?"
b0 >"
b0 ="
b0 <"
b0 ;"
b0 :"
b0 9"
b0 8"
b0 7"
b0 6"
b0 5"
b0 4"
b0 3"
b0 2"
b0 1"
b0 0"
b0 /"
b0 ."
b0 -"
b0 ,"
b0 +"
b0 *"
b0 )"
b0 ("
b0 '"
b0 &"
b0 %"
b0 $"
b0 #"
b0 ""
b0 !"
b0 ~
b0 }
b0 |
b0 {
b0 z
b0 y
b0 x
b0 w
b0 v
b0 u
b0 t
b0 s
b0 r
b0 q
b0 p
b0 o
b0 n
b0 m
b0 l
b0 k
b0 j
b0 i
b0 h
b0 g
b0 f
b0 e
b0 d
b0 c
b0 b
b0 a
b0 `
b0 _
b0 ^
b0 ]
b0 \
b0 [
b0 Z
b0 Y
b0 X
b0 W
b0 V
b0 U
b0 T
0S
1R
b0 Q
0P
b0 E
b0 D
b0 C
b0 B
b0 A
b10010000000000000000000000000100101000000000000000000000000000000000 @
b1000000100000001100000100000001010000011000000111000010000000100100001010000010110000110000001101000011100000111100010000000100010001001000010011000101000001010100010110000101110001100000011001000110100001101100011100000111010001111000011111 ?
b1 >
b0 =
b0 <
0;
0:
09
b10001000100001101000010010000010100010001000011010000100100000101000100010000110100001001000001010001000100001101000010010000010100010001000011010000100100000101000100010000110100001001000001010001000100001101000010010000010100010001000011010000100100000101000100010000110100001001000001010001000100001101000010010000010100010001000011010000100100000101000100010000110100001001000001010001000100001101000010010000010100010001000011010000100100000101000100010000110100001001000001 8
b0 7
b10010000000000000000000000000100101000000000000000000000000000000000 6
b1000000100000001100000100000001010000011000000111000010000000100100001010000010110000110000001101000011100000111100010000000100010001001000010011000101000001010100010110000101110001100000011001000110100001101100011100000111010001111000011111 5
b1 4
03
02
01
b0 0
b0 /
1.
1-
b0 ,
b0 +
b0 *
b0 )
b0 (
b0 '
b0 &
b0 %
0$
0#
b0 "
b0 !
$end
#5000
b10000 ["
b10000 }#
13
#10000
03
#15000
b10000 ["
b10000 }#
13
#20000
03
19
#25000
01
0r"
02
0P
13
#30000
b1 w"
03
1:
#35000
b10 w"
02
0P
01
0r"
b1 /
b1 ^"
b1 s"
13
#40000
b10 w"
03
0:
#45000
b10000010101011110100011111110110 H#
b10100010011011101100001000000 G#
b11001100110110001101010010001110 F#
b10000100000000101101110001101001 E#
b10000010101011110100011111110110 L#
b10100010011011101100001000000 K#
b11001100110110001101010010001110 J#
b10000100000000101101110001101001 I#
b1101110001101011011001101000101 <#
b10111111100010101001101011001001 ;#
b10110001001011111011011000101000 :#
b1110011010101001111101111011111 9#
b1101110001101011011001101000101 @#
b10111111100010101001101011001001 ?#
b10110001001011111011011000101000 >#
b1110011010101001111101111011111 =#
b10111000011010111100110001110111 0#
b111000111101000001101110110001 /#
b101011111110011110010011101110 .#
b11110110010100101000111101010 -#
b10111000011010111100110001110111 4#
b111000111101000001101110110001 3#
b101011111110011110010011101110 2#
b11110110010100101000111101010 1#
b10001111110001110010111011000010 $#
b11100001111101010010101000100 ##
b10100011010001101101100110100101 "#
b10000010101011110100011111110110011011100011010110110011010001011011100001101011110011000111011110001111110001110010111011000010000101000100110111011000010000001011111110001010100110101100100100111000111101000001101110110001000111000011111010100101010001001100110011011000110101001000111010110001001011111011011000101000001010111111100111100100111011101010001101000110110110011010010110000100000000101101110001101001011100110101010011111011110111110001111011001010010100011110101010111011111010101010001001011100 )
b10000010101011110100011111110110011011100011010110110011010001011011100001101011110011000111011110001111110001110010111011000010000101000100110111011000010000001011111110001010100110101100100100111000111101000001101110110001000111000011111010100101010001001100110011011000110101001000111010110001001011111011011000101000001010111111100111100100111011101010001101000110110110011010010110000100000000101101110001101001011100110101010011111011110111110001111011001010010100011110101010111011111010101010001001011100 f"
b10111011111010101010001001011100 !#
b10001111110001110010111011000010 (#
b11100001111101010010101000100 '#
b10100011010001101101100110100101 &#
b10111011111010101010001001011100 %#
b1001000000000000000000000000010010100000000000000000000000000000000000000000000000000000000000000001000000000000000000000000000111110001111000011101000111000001101100011010000110010001100000010111000101100001010100010100000100110001001000010001000100000000111100001110000011010000110000001011000010100000100100001000000001110000011000000101000001000000001100000010000000010000000001101011001000000110010101110100011110010110001000101101001100100011001100100000011001000110111001100001011100000111100001100101 x"
b1001000000000000000000000000 D#
b1001010000000000000000000000000 8#
b1000000000000000000000000 ~"
b11111000111100001110100011100 C#
b11011000110100001100100011000 7#
b10111000101100001010100010100 +#
b10011000100100001000100010000 }"
b1111000011100000110100001100 B#
b1011000010100000100100001000 6#
b111000001100000010100000100 *#
b11000000100000000100000000 |"
b1101011001000000110010101110100 A#
b1111001011000100010110100110010 5#
b110011001000000110010001101110 )#
b1001000000000000000000000000010010100000000000000000000000000000000000000000000000000000000000000001000000000000000000000000000111110001111000011101000111000001101100011010000110010001100000010111000101100001010100010100000100110001001000010001000100000000111100001110000011010000110000001011000010100000100100001000000001110000011000000101000001000000001100000010000000010000000001101011001000000110010101110100011110010110001000101101001100100011001100100000011001000110111001100001011100000111100001100101 '
b1001000000000000000000000000010010100000000000000000000000000000000000000000000000000000000000000001000000000000000000000000000111110001111000011101000111000001101100011010000110010001100000010111000101100001010100010100000100110001001000010001000100000000111100001110000011010000110000001011000010100000100100001000000001110000011000000101000001000000001100000010000000010000000001101011001000000110010101110100011110010110001000101101001100100011001100100000011001000110111001100001011100000111100001100101 g"
b1100001011100000111100001100101 {"
11
1r"
b10 /
b10 ^"
b10 s"
02
0P
13
#50000
03
#55000
b1011001011101101001100111000110 x#
b10010111101101011111111011110011 w#
b111110101110111001001000000110 v#
b11000011000100100011111111100101 u#
b1011001011101101001100111000110 |#
b10010111101101011111111011110011 {#
b111110101110111001001000000110 z#
b11000011000100100011111111100101 y#
b10100100111001111111001101001000 l#
b11011101010000011001000011010010 k#
b11101000111011111100110101100100 j#
b1010100101111100001111110110101 i#
b10100100111001111111001101001000 p#
b11011101010000011001000011010010 o#
b11101000111011111100110101100100 n#
b1010100101111100001111110110101 m#
b1111001000001000100011001100 `#
b1001010001111101010000101001001 _#
b1101101111111001111010100101000 ^#
b11101010110111110110000010110101 ]#
b1111001000001000100011001100 d#
b1001010001111101010000101001001 c#
b1101101111111001111010100101000 b#
b11101010110111110110000010110101 a#
b10001000010101110100111000010110 T#
b1000100111100100111000101010 S#
b1101000111100100100100011110011 R#
b10001000010101110100111000010110010110010111011010011001110001101010010011100111111100110100100000001111001000001000100011001100010010100011111010100001010010010000100010011110010011100010101010010111101101011111111011110011110111010100000110010000110100101110100011101111110011010110010001101101111111001111010100101000011010001111001001001000111100110011111010111011100100100000011011000011000100100011111111100101010101001011111000011111101101011110101011011111011000001011010111010110001101000011001000000101 %
b10001000010101110100111000010110010110010111011010011001110001101010010011100111111100110100100000001111001000001000100011001100010010100011111010100001010010010000100010011110010011100010101010010111101101011111111011110011110111010100000110010000110100101110100011101111110011010110010001101101111111001111010100101000011010001111001001001000111100110011111010111011100100100000011011000011000100100011111111100101010101001011111000011111101101011110101011011111011000001011010111010110001101000011001000000101 e"
b11010110001101000011001000000101 Q#
b10001000010101110100111000010110 X#
b1000100111100100111000101010 W#
b1101000111100100100100011110011 V#
b11010110001101000011001000000101 U#
0-
0t"
b10000010101011110100011111110110 P#
b1101110001101011011001101000101 t#
b10111000011010111100110001110111 h#
b10001111110001110010111011000010 \#
b10100010011011101100001000000 [#
b10111111100010101001101011001001 O#
b111000111101000001101110110001 s#
b11100001111101010010101000100 g#
b11001100110110001101010010001110 f#
b10110001001011111011011000101000 Z#
b101011111110011110010011101110 N#
b10100011010001101101100110100101 r#
b10000100000000101101110001101001 q#
b1110011010101001111101111011111 e#
b11110110010100101000111101010 Y#
b10111011111010101010001001011100 M#
02
0P
b10000 ~#
13
#60000
03
#65000
b11001110100101111111010110001111 H#
b1011100001101011011101100101101 G#
b1011101000011101011110100111110 F#
b11001100100100011011001110100000 E#
b11001110100101111111010110001111 L#
b1011100001101011011101100101101 K#
b1011101000011101011110100111110 J#
b11001100100100011011001110100000 I#
b10010010100011111010110010011001 <#
b101000010010011001011010010000 ;#
b11000010001101001000101000111100 :#
b10100100010010001010001100001 9#
b10010010100011111010110010011001 @#
b101000010010011001011010010000 ?#
b11000010001101001000101000111100 >#
b10100100010010001010001100001 =#
b1011111101001000111100011000101 0#
b1010010001110110110111011101110 /#
b11101011011000111010010000001100 .#
b10011111101111110101001101001110 -#
b1011111101001000111100011000101 4#
b1010010001110110110111011101110 3#
b11101011011000111010010000001100 2#
b10011111101111110101001101001110 1#
b11101001011101001100100000100 $#
b1000111001101110100010110100101 ##
b1101110100110100111011100111010 "#
b11001110100101111111010110001111100100101000111110101100100110010101111110100100011110001100010100011101001011101001100100000100010111000011010110111011001011010010100001001001100101101001000001010010001110110110111011101110010001110011011101000101101001010101110100001110101111010011111011000010001101001000101000111100111010110110001110100100000011000110111010011010011101110011101011001100100100011011001110100000000101001000100100010100011000011001111110111111010100110100111001001000110110100011010101010110 )
b11001110100101111111010110001111100100101000111110101100100110010101111110100100011110001100010100011101001011101001100100000100010111000011010110111011001011010010100001001001100101101001000001010010001110110110111011101110010001110011011101000101101001010101110100001110101111010011111011000010001101001000101000111100111010110110001110100100000011000110111010011010011101110011101011001100100100011011001110100000000101001000100100010100011000011001111110111111010100110100111001001000110110100011010101010110 f"
b1001000110110100011010101010110 !#
b11101001011101001100100000100 (#
b1000111001101110100010110100101 '#
b1101110100110100111011100111010 &#
b1001000110110100011010101010110 %#
1-
1t"
b1 +
b1 _"
b1 z"
b10001000010101110100111000010110 D#
b1011001011101101001100111000110 8#
b10100100111001111111001101001000 ,#
b1111001000001000100011001100 ~"
b1001010001111101010000101001001 C#
b1000100111100100111000101010 7#
b10010111101101011111111011110011 +#
b11011101010000011001000011010010 }"
b11101000111011111100110101100100 B#
b1101101111111001111010100101000 6#
b1101000111100100100100011110011 *#
b111110101110111001001000000110 |"
b11000011000100100011111111100101 A#
b1010100101111100001111110110101 5#
b11101010110111110110000010110101 )#
b10001000010101110100111000010110010110010111011010011001110001101010010011100111111100110100100000001111001000001000100011001100010010100011111010100001010010010000100010011110010011100010101010010111101101011111111011110011110111010100000110010000110100101110100011101111110011010110010001101101111111001111010100101000011010001111001001001000111100110011111010111011100100100000011011000011000100100011111111100101010101001011111000011111101101011110101011011111011000001011010111010110001101000011001000000101 '
b10001000010101110100111000010110010110010111011010011001110001101010010011100111111100110100100000001111001000001000100011001100010010100011111010100001010010010000100010011110010011100010101010010111101101011111111011110011110111010100000110010000110100101110100011101111110011010110010001101101111111001111010100101000011010001111001001001000111100110011111010111011100100100000011011000011000100100011111111100101010101001011111000011111101101011110101011011111011000001011010111010110001101000011001000000101 g"
b11010110001101000011001000000101 {"
02
0P
b10000 !$
13
#70000
03
#75000
b1100101010011111110101100010100 x#
b111101110011110000001110100101 w#
b10011010110111000110010110110101 v#
b10010010001001101110011001001000 u#
b1100101010011111110101100010100 |#
b111101110011110000001110100101 {#
b10011010110111000110010110110101 z#
b10010010001001101110011001001000 y#
b11011100000100100100101111000111 l#
b11001100101000111011111110011111 k#
b100110111010101010001100011000 j#
b1101110100001100011110001111000 i#
b11011100000100100100101111000111 p#
b11001100101000111011111110011111 o#
b100110111010101010001100011000 n#
b1101110100001100011110001111000 m#
b10011001001111110110010000101001 `#
b111010000000111001110000110011 _#
b10010000011111010000111000011000 ^#
b1101101000101110100001110111001 ]#
b10011001001111110110010000101001 d#
b111010000000111001110000110011 c#
b10010000011111010000111000011000 b#
b1101101000101110100001110111001 a#
b1111100101111111110110101011011 T#
b11010001111101110111111010010101 S#
b1010010000010101011100001001001 R#
b1111100101111111110110101011011011001010100111111101011000101001101110000010010010010111100011110011001001111110110010000101001001110100000001110011100001100111101000111110111011111101001010100111101110011110000001110100101110011001010001110111111100111110010011011101010101000110001100010010000011111010000111000011000010100100000101010111000010010011001101011011100011001011011010110010010001001101110011001001000011011101000011000111100011110000110110100010111010000111011100101110111100100010100010101000111 %
b1111100101111111110110101011011011001010100111111101011000101001101110000010010010010111100011110011001001111110110010000101001001110100000001110011100001100111101000111110111011111101001010100111101110011110000001110100101110011001010001110111111100111110010011011101010101000110001100010010000011111010000111000011000010100100000101010111000010010011001101011011100011001011011010110010010001001101110011001001000011011101000011000111100011110000110110100010111010000111011100101110111100100010100010101000111 e"
b1110111100100010100010101000111 Q#
b1111100101111111110110101011011 X#
b11010001111101110111111010010101 W#
b1010010000010101011100001001001 V#
b1110111100100010100010101000111 U#
0-
0t"
b11001110100101111111010110001111 P#
b10010010100011111010110010011001 t#
b1011111101001000111100011000101 h#
b11101001011101001100100000100 \#
b1011100001101011011101100101101 [#
b101000010010011001011010010000 O#
b1010010001110110110111011101110 s#
b1000111001101110100010110100101 g#
b1011101000011101011110100111110 f#
b11000010001101001000101000111100 Z#
b11101011011000111010010000001100 N#
b1101110100110100111011100111010 r#
b11001100100100011011001110100000 q#
b10100100010010001010001100001 e#
b10011111101111110101001101001110 Y#
b1001000110110100011010101010110 M#
02
0P
b10000 ~#
13
#80000
03
