tb_asic_top.vcd
$date
	Mon Jul 28 18:01:50 2025
$end
$version
	Icarus Verilog
$end
$timescale
	1ps
$end
$scope module tb_asic_top $end
$var wire 2 ! request_type [1:0] $end
$var wire 512 " out_state [511:0] $end
$var wire 1 # done $end
$var wire 1 $ chunk_request $end
$var wire 5 % chunk_index [4:0] $end
$var wire 1 & busy $end
$var reg 1 ' clk $end
$var reg 512 ( in_state [511:0] $end
$var reg 1 ) rst_n $end
$var reg 1 * start $end
$var reg 32 + tb_chunk_data [31:0] $end
$var reg 2 , tb_chunk_type [1:0] $end
$var reg 1 - tb_chunk_valid $end
$var reg 1 . use_streamed_counter $end
$var reg 1 / use_streamed_key $end
$var reg 1 0 use_streamed_nonce $end
$var integer 32 1 pass_count [31:0] $end
$var integer 32 2 test_id [31:0] $end
$scope module U_ASIC_TOP $end
$var wire 32 3 chunk [31:0] $end
$var wire 5 4 chunk_index [4:0] $end
$var wire 2 5 chunk_type [1:0] $end
$var wire 1 - chunk_valid $end
$var wire 1 ' clk $end
$var wire 1 6 data_is_from_stream $end
$var wire 512 7 in_state [511:0] $end
$var wire 1 ) rst_n $end
$var wire 1 * start $end
$var wire 1 8 stream_data_is_valid $end
$var wire 1 . use_streamed_counter $end
$var wire 1 / use_streamed_key $end
$var wire 1 0 use_streamed_nonce $end
$var wire 1 9 trng_ready $end
$var wire 32 : trng_data [31:0] $end
$var wire 512 ; out_state [511:0] $end
$var wire 32 < data_to_accumulate [31:0] $end
$var wire 1 = data_source_is_ready $end
$var wire 1 > core_done $end
$var wire 1 ? core_busy $end
$var parameter 3 @ ACQUIRE $end
$var parameter 3 A COMPLETE $end
$var parameter 3 B CORE $end
$var parameter 2 C COUNTER $end
$var parameter 3 D IDLE $end
$var parameter 2 E KEY $end
$var parameter 2 F NONCE $end
$var parameter 3 G WAIT $end
$var reg 2 H acquire_sub_state [1:0] $end
$var reg 1 & busy $end
$var reg 1 $ chunk_request $end
$var reg 1 I core_start $end
$var reg 32 J counter [31:0] $end
$var reg 5 K current_chunk_id [4:0] $end
$var reg 1 # done $end
$var reg 3 L fsm_state [2:0] $end
$var reg 256 M key [255:0] $end
$var reg 96 N nonce [95:0] $end
$var reg 2 O request_type [1:0] $end
$var reg 32 P temp_counter [31:0] $end
$var reg 256 Q temp_key [255:0] $end
$var reg 96 R temp_nonce [95:0] $end
$var reg 1 S trng_request $end
$scope module chacha_unit $end
$var wire 1 ' clk $end
$var wire 32 T counter [31:0] $end
$var wire 256 U key [255:0] $end
$var wire 96 V nonce [95:0] $end
$var wire 512 W plaintext [511:0] $end
$var wire 1 ) rst_n $end
$var wire 1 I start $end
$var wire 32 X diag_out_s9 [31:0] $end
$var wire 32 Y diag_out_s8 [31:0] $end
$var wire 32 Z diag_out_s7 [31:0] $end
$var wire 32 [ diag_out_s6 [31:0] $end
$var wire 32 \ diag_out_s5 [31:0] $end
$var wire 32 ] diag_out_s4 [31:0] $end
$var wire 32 ^ diag_out_s3 [31:0] $end
$var wire 32 _ diag_out_s2 [31:0] $end
$var wire 32 ` diag_out_s15 [31:0] $end
$var wire 32 a diag_out_s14 [31:0] $end
$var wire 32 b diag_out_s13 [31:0] $end
$var wire 32 c diag_out_s12 [31:0] $end
$var wire 32 d diag_out_s11 [31:0] $end
$var wire 32 e diag_out_s10 [31:0] $end
$var wire 32 f diag_out_s1 [31:0] $end
$var wire 32 g diag_out_s0 [31:0] $end
$var wire 32 h col_out_s9 [31:0] $end
$var wire 32 i col_out_s8 [31:0] $end
$var wire 32 j col_out_s7 [31:0] $end
$var wire 32 k col_out_s6 [31:0] $end
$var wire 32 l col_out_s5 [31:0] $end
$var wire 32 m col_out_s4 [31:0] $end
$var wire 32 n col_out_s3 [31:0] $end
$var wire 32 o col_out_s2 [31:0] $end
$var wire 32 p col_out_s15 [31:0] $end
$var wire 32 q col_out_s14 [31:0] $end
$var wire 32 r col_out_s13 [31:0] $end
$var wire 32 s col_out_s12 [31:0] $end
$var wire 32 t col_out_s11 [31:0] $end
$var wire 32 u col_out_s10 [31:0] $end
$var wire 32 v col_out_s1 [31:0] $end
$var wire 32 w col_out_s0 [31:0] $end
$var parameter 32 x C0 $end
$var parameter 32 y C1 $end
$var parameter 32 z C2 $end
$var parameter 32 { C3 $end
$var parameter 3 | COMPLETE $end
$var parameter 3 } IDLE $end
$var parameter 3 ~ INIT $end
$var parameter 3 !" OUTPUT $end
$var parameter 3 "" ROUND $end
$var reg 1 ? busy $end
$var reg 512 #" ciphertext [511:0] $end
$var reg 1 > done $end
$var reg 3 $" fsm_state [2:0] $end
$var reg 5 %" round_count [4:0] $end
$scope module U_QR_COL_0 $end
$var wire 32 &" in_a [31:0] $end
$var wire 32 '" in_b [31:0] $end
$var wire 32 (" in_c [31:0] $end
$var wire 32 )" in_d [31:0] $end
$var reg 32 *" out_a [31:0] $end
$var reg 32 +" out_b [31:0] $end
$var reg 32 ," out_c [31:0] $end
$var reg 32 -" out_d [31:0] $end
$scope begin $unm_blk_36 $end
$var reg 32 ." a [31:0] $end
$var reg 32 /" b [31:0] $end
$var reg 32 0" c [31:0] $end
$var reg 32 1" d [31:0] $end
$upscope $end
$upscope $end
$scope module U_QR_COL_1 $end
$var wire 32 2" in_a [31:0] $end
$var wire 32 3" in_b [31:0] $end
$var wire 32 4" in_c [31:0] $end
$var wire 32 5" in_d [31:0] $end
$var reg 32 6" out_a [31:0] $end
$var reg 32 7" out_b [31:0] $end
$var reg 32 8" out_c [31:0] $end
$var reg 32 9" out_d [31:0] $end
$scope begin $unm_blk_36 $end
$var reg 32 :" a [31:0] $end
$var reg 32 ;" b [31:0] $end
$var reg 32 <" c [31:0] $end
$var reg 32 =" d [31:0] $end
$upscope $end
$upscope $end
$scope module U_QR_COL_2 $end
$var wire 32 >" in_a [31:0] $end
$var wire 32 ?" in_b [31:0] $end
$var wire 32 @" in_c [31:0] $end
$var wire 32 A" in_d [31:0] $end
$var reg 32 B" out_a [31:0] $end
$var reg 32 C" out_b [31:0] $end
$var reg 32 D" out_c [31:0] $end
$var reg 32 E" out_d [31:0] $end
$scope begin $unm_blk_36 $end
$var reg 32 F" a [31:0] $end
$var reg 32 G" b [31:0] $end
$var reg 32 H" c [31:0] $end
$var reg 32 I" d [31:0] $end
$upscope $end
$upscope $end
$scope module U_QR_COL_3 $end
$var wire 32 J" in_a [31:0] $end
$var wire 32 K" in_b [31:0] $end
$var wire 32 L" in_c [31:0] $end
$var wire 32 M" in_d [31:0] $end
$var reg 32 N" out_a [31:0] $end
$var reg 32 O" out_b [31:0] $end
$var reg 32 P" out_c [31:0] $end
$var reg 32 Q" out_d [31:0] $end
$scope begin $unm_blk_36 $end
$var reg 32 R" a [31:0] $end
$var reg 32 S" b [31:0] $end
$var reg 32 T" c [31:0] $end
$var reg 32 U" d [31:0] $end
$upscope $end
$upscope $end
$scope module U_QR_DIAG_0 $end
$var wire 32 V" in_a [31:0] $end
$var wire 32 W" in_b [31:0] $end
$var wire 32 X" in_c [31:0] $end
$var wire 32 Y" in_d [31:0] $end
$var reg 32 Z" out_a [31:0] $end
$var reg 32 [" out_b [31:0] $end
$var reg 32 \" out_c [31:0] $end
$var reg 32 ]" out_d [31:0] $end
$scope begin $unm_blk_36 $end
$var reg 32 ^" a [31:0] $end
$var reg 32 _" b [31:0] $end
$var reg 32 `" c [31:0] $end
$var reg 32 a" d [31:0] $end
$upscope $end
$upscope $end
$scope module U_QR_DIAG_1 $end
$var wire 32 b" in_a [31:0] $end
$var wire 32 c" in_b [31:0] $end
$var wire 32 d" in_c [31:0] $end
$var wire 32 e" in_d [31:0] $end
$var reg 32 f" out_a [31:0] $end
$var reg 32 g" out_b [31:0] $end
$var reg 32 h" out_c [31:0] $end
$var reg 32 i" out_d [31:0] $end
$scope begin $unm_blk_36 $end
$var reg 32 j" a [31:0] $end
$var reg 32 k" b [31:0] $end
$var reg 32 l" c [31:0] $end
$var reg 32 m" d [31:0] $end
$upscope $end
$upscope $end
$scope module U_QR_DIAG_2 $end
$var wire 32 n" in_a [31:0] $end
$var wire 32 o" in_b [31:0] $end
$var wire 32 p" in_c [31:0] $end
$var wire 32 q" in_d [31:0] $end
$var reg 32 r" out_a [31:0] $end
$var reg 32 s" out_b [31:0] $end
$var reg 32 t" out_c [31:0] $end
$var reg 32 u" out_d [31:0] $end
$scope begin $unm_blk_36 $end
$var reg 32 v" a [31:0] $end
$var reg 32 w" b [31:0] $end
$var reg 32 x" c [31:0] $end
$var reg 32 y" d [31:0] $end
$upscope $end
$upscope $end
$scope module U_QR_DIAG_3 $end
$var wire 32 z" in_a [31:0] $end
$var wire 32 {" in_b [31:0] $end
$var wire 32 |" in_c [31:0] $end
$var wire 32 }" in_d [31:0] $end
$var reg 32 ~" out_a [31:0] $end
$var reg 32 !# out_b [31:0] $end
$var reg 32 "# out_c [31:0] $end
$var reg 32 ## out_d [31:0] $end
$scope begin $unm_blk_36 $end
$var reg 32 $# a [31:0] $end
$var reg 32 %# b [31:0] $end
$var reg 32 &# c [31:0] $end
$var reg 32 '# d [31:0] $end
$upscope $end
$upscope $end
$scope begin $ivl_for_loop0 $end
$var integer 32 (# i [31:0] $end
$upscope $end
$scope begin $ivl_for_loop1 $end
$var integer 32 )# i [31:0] $end
$upscope $end
$upscope $end
$scope module trng_unit $end
$var wire 1 ' clk $end
$var wire 1 ) rst_n $end
$var wire 1 S trng_request $end
$var reg 32 *# internal_counter [31:0] $end
$var reg 32 +# random_number [31:0] $end
$var reg 1 9 ready $end
$upscope $end
$upscope $end
$scope begin $ivl_for_loop2 $end
$var integer 32 ,# i [31:0] $end
$upscope $end
$scope begin $ivl_for_loop3 $end
$var integer 32 -# i [31:0] $end
$upscope $end
$scope begin $ivl_for_loop4 $end
$var integer 32 .# i [31:0] $end
$upscope $end
$scope begin $ivl_for_loop5 $end
$var integer 32 /# i [31:0] $end
$upscope $end
$scope begin $ivl_for_loop6 $end
$var integer 32 0# i [31:0] $end
$upscope $end
$upscope $end
$enddefinitions $end
$comment Show the parameter values. $end
$dumpall
b10 ""
b11 !"
b1 ~
b0 }
b100 |
b1101011001000000110010101110100 {
b1111001011000100010110100110010 z
b110011001000000110010001101110 y
b1100001011100000111100001100101 x
b11 G
b1 F
b0 E
b0 D
b10 C
b10 B
b100 A
b1 @
$end
#0
$dumpvars
bx 0#
bx /#
bx .#
bx -#
bx ,#
b0 +#
b0 *#
b0 )#
b10000 (#
b0 '#
b0 &#
b0 %#
b0 $#
b0 ##
b0 "#
b0 !#
b0 ~"
b0 }"
b0 |"
b0 {"
b0 z"
b0 y"
b0 x"
b0 w"
b0 v"
b0 u"
b0 t"
b0 s"
b0 r"
b0 q"
b0 p"
b0 o"
b0 n"
b0 m"
b0 l"
b0 k"
b0 j"
b0 i"
b0 h"
b0 g"
b0 f"
b0 e"
b0 d"
b0 c"
b0 b"
b0 a"
b0 `"
b0 _"
b0 ^"
b0 ]"
b0 \"
b0 ["
b0 Z"
b0 Y"
b0 X"
b0 W"
b0 V"
b0 U"
b0 T"
b0 S"
b0 R"
b0 Q"
b0 P"
b0 O"
b0 N"
b0 M"
b0 L"
b0 K"
b0 J"
b0 I"
b0 H"
b0 G"
b0 F"
b0 E"
b0 D"
b0 C"
b0 B"
b0 A"
b0 @"
b0 ?"
b0 >"
b0 ="
b0 <"
b0 ;"
b0 :"
b0 9"
b0 8"
b0 7"
b0 6"
b0 5"
b0 4"
b0 3"
b0 2"
b0 1"
b0 0"
b0 /"
b0 ."
b0 -"
b0 ,"
b0 +"
b0 *"
b0 )"
b0 ("
b0 '"
b0 &"
b0 %"
b0 $"
b0 #"
b0 w
b0 v
b0 u
b0 t
b0 s
b0 r
b0 q
b0 p
b0 o
b0 n
b0 m
b0 l
b0 k
b0 j
b0 i
b0 h
b0 g
b0 f
b0 e
b0 d
b0 c
b0 b
b0 a
b0 `
b0 _
b0 ^
b0 ]
b0 \
b0 [
b0 Z
b0 Y
b0 X
b0 W
b0 V
b0 U
b0 T
0S
b0 R
b0 Q
b0 P
b0 O
b0 N
b0 M
b0 L
b0 K
b0 J
0I
bx H
0?
0>
0=
b0 <
b0 ;
b0 :
09
08
b0 7
06
b0 5
b0 4
b0 3
b0 2
b0 1
00
0/
0.
0-
b0 ,
b0 +
0*
0)
b0 (
0'
0&
b0 %
0$
0#
b0 "
b0 !
$end
#5000
b10000 (#
1'
#10000
0'
#15000
b10000 (#
1'
#20000
0'
1)
#25000
1'
#30000
0'
1*
b10101010101110111100110011011101111011101111111100000000000100010010001000110011010001000101010101100110011101111000100010011001101010101011101111001100110111011110111011111111000000000001000100100010001100110100010001010101011001100111011110001000100110011010101010111011110011001101110111101110111111110000000000010001001000100011001101000100010101010110011001110111100010001001100110101010101110111100110011011101111011101111111100000000000100010010001000110011010001000101010101100110011101111000100010011001 (
b10101010101110111100110011011101111011101111111100000000000100010010001000110011010001000101010101100110011101111000100010011001101010101011101111001100110111011110111011111111000000000001000100100010001100110100010001010101011001100111011110001000100110011010101010111011110011001101110111101110111111110000000000010001001000100011001101000100010101010110011001110111100010001001100110101010101110111100110011011101111011101111111100000000000100010010001000110011010001000101010101100110011101111000100010011001 7
b10101010101110111100110011011101111011101111111100000000000100010010001000110011010001000101010101100110011101111000100010011001101010101011101111001100110111011110111011111111000000000001000100100010001100110100010001010101011001100111011110001000100110011010101010111011110011001101110111101110111111110000000000010001001000100011001101000100010101010110011001110111100010001001100110101010101110111100110011011101111011101111111100000000000100010010001000110011010001000101010101100110011101111000100010011001 W
b1 2
#35000
b0 H
b1 L
1&
1'
#40000
0'
0*
#45000
1S
1'
#50000
0'
#55000
b1 <
1=
19
b1 :
b1 +#
b1 *#
1S
1'
#60000
0'
#65000
b10 <
b1 %
b1 4
b1 K
b1 Q
0S
b10 :
b10 +#
b10 *#
19
1'
#70000
0'
#75000
0=
09
b10 %
b10 4
b10 K
b1000000000000000000000000000000001 Q
1'
#80000
0'
#85000
1S
1'
#90000
0'
#95000
b11 <
1=
19
b11 :
b11 +#
b11 *#
1S
1'
#100000
0'
#105000
b100 <
b11 %
b11 4
b11 K
b110000000000000000000000000000001000000000000000000000000000000001 Q
0S
b100 :
b100 +#
b100 *#
19
1'
#110000
0'
#115000
0=
09
b100 %
b100 4
b100 K
b100000000000000000000000000000000110000000000000000000000000000001000000000000000000000000000000001 Q
1'
#120000
0'
#125000
1S
1'
#130000
0'
#135000
b101 <
1=
19
b101 :
b101 +#
b101 *#
1S
1'
#140000
0'
#145000
b110 <
b101 %
b101 4
b101 K
b10100000000000000000000000000000100000000000000000000000000000000110000000000000000000000000000001000000000000000000000000000000001 Q
0S
b110 :
b110 +#
b110 *#
19
1'
#150000
0'
#155000
0=
09
b110 %
b110 4
b110 K
b1100000000000000000000000000000010100000000000000000000000000000100000000000000000000000000000000110000000000000000000000000000001000000000000000000000000000000001 Q
1'
#160000
0'
#165000
1S
1'
#170000
0'
#175000
b111 <
1=
19
b111 :
b111 +#
b111 *#
1S
1'
#180000
0'
#185000
b1000 <
b111 %
b111 4
b111 K
b111000000000000000000000000000001100000000000000000000000000000010100000000000000000000000000000100000000000000000000000000000000110000000000000000000000000000001000000000000000000000000000000001 Q
0S
b1000 :
b1000 +#
b1000 *#
19
1'
#190000
0'
#195000
0=
09
b1 H
b0 %
b0 4
b0 K
b111000000000000000000000000000001100000000000000000000000000000010100000000000000000000000000000100000000000000000000000000000000110000000000000000000000000000001000000000000000000000000000000001 M
b111000000000000000000000000000001100000000000000000000000000000010100000000000000000000000000000100000000000000000000000000000000110000000000000000000000000000001000000000000000000000000000000001 U
b100000000000000000000000000000000111000000000000000000000000000001100000000000000000000000000000010100000000000000000000000000000100000000000000000000000000000000110000000000000000000000000000001000000000000000000000000000000001 Q
1'
#200000
0'
#205000
1S
1'
#210000
0'
#215000
b1001 <
1=
19
b1001 :
b1001 +#
b1001 *#
1S
1'
#220000
0'
#225000
b1010 <
b1 %
b1 4
b1 K
b1001 R
0S
b1010 :
b1010 +#
b1010 *#
19
1'
#230000
0'
#235000
0=
09
b10 %
b10 4
b10 K
b101000000000000000000000000000001001 R
1'
#240000
0'
#245000
1S
1'
#250000
0'
#255000
b1011 <
1=
19
b1011 :
b1011 +#
b1011 *#
1S
1'
#260000
0'
#265000
b1100 <
b10 H
b0 %
b0 4
b0 K
b101000000000000000000000000000001001 N
b101000000000000000000000000000001001 V
b10110000000000000000000000000000101000000000000000000000000000001001 R
0S
b1100 :
b1100 +#
b1100 *#
19
1'
#270000
0'
#275000
0=
09
b10 L
b1100 J
b1100 T
1'
#280000
0'
#285000
b11 L
1I
1'
#290000
0'
#295000
b1010110010111010000111100100011 c
b1010110010111010000111100100011 i"
b1111110111011101001010000100 d
b1111110111011101001010000100 h"
b10100001111010010111011100000101 [
b10100001111010010111011100000101 g"
b10001010000100010011010110100010 f
b10001010000100010011010110100010 f"
b1010110010111010000111100100011 m"
b1111110111011101001010000100 l"
b10100001111010010111011100000101 k"
b10001010000100010011010110100010 j"
b1000101010001000111100011010011 b
b1000101010001000111100011010011 u"
b10000001111111110001001111100101 Y
b10000001111111110001001111100101 t"
b10101001010000100011101101100111 Z
b10101001010000100011101101100111 s"
b101001101001101100101100110 _
b101001101001101100101100110 r"
b1000101010001000111100011010011 y"
b10000001111111110001001111100101 x"
b10101001010000100011101101100111 w"
b101001101001101100101100110 v"
b111000001011100011001000100101 a
b111000001011100011001000100101 ##
b1010111101100111110001011110011 X
b1010111101100111110001011110011 "#
b10010100100000001111101101101111 ]
b10010100100000001111101101101111 !#
b10101010010010101100100000110100 ^
b10101010010010101100100000110100 ~"
b111000001011100011001000100101 '#
b1010111101100111110001011110011 &#
b10010100100000001111101101101111 %#
b10101010010010101100100000110100 $#
b10111010011000010100100100110110 `
b10111010011000010100100100110110 ]"
b10011000010000110110101000001010 e
b10011000010000110110101000001010 \"
b11011000111110110100001101111 \
b11011000111110110100001101111 ["
b11011110010000110101110001000111 g
b11011110010000110101110001000111 Z"
b10111010011000010100100100110110 a"
b10011000010000110110101000001010 `"
b11011000111110110100001101111 _"
b11011110010000110101110001000111 ^"
b10101010110000001110111110010100 p
b10101010110000001110111110010100 Q"
b10101010110000001110111110010100 Y"
b10000001110010101101010110100 t
b10000001110010101101010110100 P"
b10000001110010101101010110100 d"
b1000101100011100111000111001011 j
b1000101100011100111000111001011 O"
b1000101100011100111000111001011 o"
b11110001110100101010101111001111 n
b11110001110100101010101111001111 N"
b11110001110100101010101111001111 z"
b10000001110010101101010110100 T"
b10101010110000001110111110010100 U"
b1000101100011100111000111001011 S"
b11110001110100101010101111001111 R"
b11000111101010010110101001011101 q
b11000111101010010110101001011101 E"
b11000111101010010110101001011101 }"
b11110100111010001110001111000110 u
b11110100111010001110001111000110 D"
b11110100111010001110001111000110 X"
b10111111001000001000101010000001 k
b10111111001000001000101010000001 C"
b10111111001000001000101010000001 c"
b1110000111110001101000000001000 o
b1110000111110001101000000001000 B"
b1110000111110001101000000001000 n"
b11000111101010010110101001011101 I"
b11110100111010001110001111000110 H"
b10111111001000001000101010000001 G"
b1110000111110001101000000001000 F"
b101011100110011001011110100010 r
b101011100110011001011110100010 9"
b101011100110011001011110100010 q"
b10010000000100101100101011001000 h
b10010000000100101100101011001000 8"
b10010000000100101100101011001000 |"
b10010000010001100100011110000001 l
b10010000010001100100011110000001 7"
b10010000010001100100011110000001 W"
b11000110010100101010101010110111 v
b11000110010100101010101010110111 6"
b11000110010100101010101010110111 b"
b101011100110011001011110100010 ="
b10010000000100101100101011001000 <"
b10010000010001100100011110000001 ;"
b11000110010100101010101010110111 :"
b11101101110111101001110001111111 s
b11101101110111101001110001111111 -"
b11101101110111101001110001111111 e"
b1100110010010001111110111110100 i
b1100110010010001111110111110100 ,"
b1100110010010001111110111110100 p"
b101111110111010011100101100000 m
b101111110111010011100101100000 +"
b101111110111010011100101100000 {"
b111100001111011111111101100 w
b111100001111011111111101100 *"
b111100001111011111111101100 V"
b11101101110111101001110001111111 1"
b1100110010010001111110111110100 0"
b101111110111010011100101100000 /"
b111100001111011111111101100 ."
b1010 A"
b1001 5"
b1100 )"
b111 @"
b110 4"
b101 ("
b100 K"
b11 ?"
b10 3"
b1 '"
b1101011001000000110010101110100 J"
b1111001011000100010110100110010 >"
b110011001000000110010001101110 2"
b1100001011100000111100001100101 &"
b1 $"
1?
0I
1'
#300000
0'
#305000
b10 $"
b10000 )#
1'
#310000
0'
#315000
b100111111111000111001110001110 c
b100111111111000111001110001110 i"
b1100100001011010100111110101111 d
b1100100001011010100111110101111 h"
b11110100011011000001010110001111 [
b11110100011011000001010110001111 g"
b111100001100001100011 f
b111100001100001100011 f"
b100111111111000111001110001110 m"
b1100100001011010100111110101111 l"
b11110100011011000001010110001111 k"
b111100001100001100011 j"
b11010000000110000101000110011111 b
b11010000000110000101000110011111 u"
b11011010010110011001101000001000 Y
b11011010010110011001101000001000 t"
b11011011010100110100100001111011 Z
b11011011010100110100100001111011 s"
b1010000101101010001100101010100 _
b1010000101101010001100101010100 r"
b11010000000110000101000110011111 y"
b11011010010110011001101000001000 x"
b11011011010100110100100001111011 w"
b1010000101101010001100101010100 v"
b10110111110111001111011100001000 a
b10110111110111001111011100001000 ##
b1110001110000101111110010111001 X
b1110001110000101111110010111001 "#
b11011001001010000010011011000110 ]
b11011001001010000010011011000110 !#
b1011111000110001111001010000110 ^
b1011111000110001111001010000110 ~"
b10110111110111001111011100001000 '#
b1110001110000101111110010111001 &#
b11011001001010000010011011000110 %#
b1011111000110001111001010000110 $#
b101011001111011110001001000011 `
b101011001111011110001001000011 ]"
b110110010110110100111100101110 e
b110110010110110100111100101110 \"
b10001000111011101011010100100 \
b10001000111011101011010100100 ["
b10000000100110010110110010010110 g
b10000000100110010110110010010110 Z"
b101011001111011110001001000011 a"
b110110010110110100111100101110 `"
b10001000111011101011010100100 _"
b10000000100110010110110010010110 ^"
b1010011011010110011101110100001 p
b1010011011010110011101110100001 Q"
b1010011011010110011101110100001 Y"
b10101101111101101111100000010001 t
b10101101111101101111100000010001 P"
b10101101111101101111100000010001 d"
b11000011110000111001011010011010 j
b11000011110000111001011010011010 O"
b11000011110000111001011010011010 o"
b11101011111111101000001011010111 n
b11101011111111101000001011010111 N"
b11101011111111101000001011010111 z"
b1010011011010110011101110100001 U"
b10101101111101101111100000010001 T"
b11000011110000111001011010011010 S"
b11101011111111101000001011010111 R"
b1001100110110010001001000111101 q
b1001100110110010001001000111101 E"
b1001100110110010001001000111101 }"
b1000111011010110001101101110111 u
b1000111011010110001101101110111 D"
b1000111011010110001101101110111 X"
b1000100011101110110000001111000 k
b1000100011101110110000001111000 C"
b1000100011101110110000001111000 c"
b1011111000000100100011000100010 o
b1011111000000100100011000100010 B"
b1011111000000100100011000100010 n"
b1001100110110010001001000111101 I"
b1000111011010110001101101110111 H"
b1000100011101110110000001111000 G"
b1011111000000100100011000100010 F"
b100011110000000001001111011001 r
b100011110000000001001111011001 9"
b100011110000000001001111011001 q"
b1100010001101101101011101000000 h
b1100010001101101101011101000000 8"
b1100010001101101101011101000000 |"
b1000011001010101000101101111100 l
b1000011001010101000101101111100 7"
b1000011001010101000101101111100 W"
b111111111000010010000001100111 v
b111111111000010010000001100111 6"
b111111111000010010000001100111 b"
b100011110000000001001111011001 ="
b1100010001101101101011101000000 <"
b1000011001010101000101101111100 ;"
b111111111000010010000001100111 :"
b1100000010010000000111011100110 s
b1100000010010000000111011100110 -"
b1100000010010000000111011100110 e"
b111010110111000100011101100100 i
b111010110111000100011101100100 ,"
b111010110111000100011101100100 p"
b1110110101010011100001010111011 m
b1110110101010011100001010111011 +"
b1110110101010011100001010111011 {"
b10111110111101010110110010010111 w
b10111110111101010110110010010111 *"
b10111110111101010110110010010111 V"
b1100000010010000000111011100110 1"
b111010110111000100011101100100 0"
b1110110101010011100001010111011 /"
b10111110111101010110110010010111 ."
b1 %"
b10111010011000010100100100110110 M"
b111000001011100011001000100101 A"
b1000101010001000111100011010011 5"
b1010110010111010000111100100011 )"
b1111110111011101001010000100 L"
b10011000010000110110101000001010 @"
b1010111101100111110001011110011 4"
b10000001111111110001001111100101 ("
b10101001010000100011101101100111 K"
b10100001111010010111011100000101 ?"
b11011000111110110100001101111 3"
b10010100100000001111101101101111 '"
b10101010010010101100100000110100 J"
b101001101001101100101100110 >"
b10001010000100010011010110100010 2"
b11011110010000110101110001000111 &"
1'
#320000
0'
#325000
b111010100010000100001010011101 c
b111010100010000100001010011101 i"
b11110000001010000000110111101011 d
b11110000001010000000110111101011 h"
b1111110101001011110110001010110 [
b1111110101001011110110001010110 g"
b10101011011100101011110101101000 f
b10101011011100101011110101101000 f"
b111010100010000100001010011101 m"
b11110000001010000000110111101011 l"
b1111110101001011110110001010110 k"
b10101011011100101011110101101000 j"
b10001001001001010001000111100100 b
b10001001001001010001000111100100 u"
b1011001110100110001110011000101 Y
b1011001110100110001110011000101 t"
b10100000011101111110011101111101 Z
b10100000011101111110011101111101 s"
b1111101010000111001010000001110 _
b1111101010000111001010000001110 r"
b10001001001001010001000111100100 y"
b1011001110100110001110011000101 x"
b10100000011101111110011101111101 w"
b1111101010000111001010000001110 v"
b11100111111011010110000101010110 a
b11100111111011010110000101010110 ##
b10110110101101110100101000101111 X
b10110110101101110100101000101111 "#
b10010100101111110100110000101011 ]
b10010100101111110100110000101011 !#
b1100100010110100001111101010101 ^
b1100100010110100001111101010101 ~"
b11100111111011010110000101010110 '#
b10110110101101110100101000101111 &#
b10010100101111110100110000101011 %#
b1100100010110100001111101010101 $#
b11110011001001001101010111110011 `
b11110011001001001101010111110011 ]"
b10001011010110011010101001001101 e
b10001011010110011010101001001101 \"
b11001001111010110001011010110001 \
b11001001111010110001011010110001 ["
b11100100101011101001111011011001 g
b11100100101011101001111011011001 Z"
b11110011001001001101010111110011 a"
b10001011010110011010101001001101 `"
b11001001111010110001011010110001 _"
b11100100101011101001111011011001 ^"
b1000001111010000011010100100100 p
b1000001111010000011010100100100 Q"
b1000001111010000011010100100100 Y"
b1111111010101111001011000100100 t
b1111111010101111001011000100100 P"
b1111111010101111001011000100100 d"
b11100000000101000010001111011110 j
b11100000000101000010001111011110 O"
b11100000000101000010001111011110 o"
b11111101000000111111100101100100 n
b11111101000000111111100101100100 N"
b11111101000000111111100101100100 z"
b1000001111010000011010100100100 U"
b1111111010101111001011000100100 T"
b11100000000101000010001111011110 S"
b11111101000000111111100101100100 R"
b1110000100011111101100000100011 q
b1110000100011111101100000100011 E"
b1110000100011111101100000100011 }"
b10000000110101110001101001001110 u
b10000000110101110001101001001110 D"
b10000000110101110001101001001110 X"
b11010110101010100000011000011010 k
b11010110101010100000011000011010 C"
b11010110101010100000011000011010 c"
b11111010100110110111110100100101 o
b11111010100110110111110100100101 B"
b11111010100110110111110100100101 n"
b1110000100011111101100000100011 I"
b10000000110101110001101001001110 H"
b11010110101010100000011000011010 G"
b11111010100110110111110100100101 F"
b1101011101100000011100011001001 r
b1101011101100000011100011001001 9"
b1101011101100000011100011001001 q"
b10011100000010111111011010100101 h
b10011100000010111111011010100101 8"
b10011100000010111111011010100101 |"
b1011110001110100101100011111101 l
b1011110001110100101100011111101 7"
b1011110001110100101100011111101 W"
b1110111111100110111000100011011 v
b1110111111100110111000100011011 6"
b1110111111100110111000100011011 b"
b1101011101100000011100011001001 ="
b10011100000010111111011010100101 <"
b1011110001110100101100011111101 ;"
b1110111111100110111000100011011 :"
b1111011101101110100000101111101 s
b1111011101101110100000101111101 -"
b1111011101101110100000101111101 e"
b110110111000110101100111000010 i
b110110111000110101100111000010 ,"
b110110111000110101100111000010 p"
b10000101101101111111000100111010 m
b10000101101101111111000100111010 +"
b10000101101101111111000100111010 {"
b10011101101010011100100101111100 w
b10011101101010011100100101111100 *"
b10011101101010011100100101111100 V"
b1111011101101110100000101111101 1"
b110110111000110101100111000010 0"
b10000101101101111111000100111010 /"
b10011101101010011100100101111100 ."
b10 %"
b101011001111011110001001000011 M"
b10110111110111001111011100001000 A"
b11010000000110000101000110011111 5"
b100111111111000111001110001110 )"
b1100100001011010100111110101111 L"
b110110010110110100111100101110 @"
b1110001110000101111110010111001 4"
b11011010010110011001101000001000 ("
b11011011010100110100100001111011 K"
b11110100011011000001010110001111 ?"
b10001000111011101011010100100 3"
b11011001001010000010011011000110 '"
b1011111000110001111001010000110 J"
b1010000101101010001100101010100 >"
b111100001100001100011 2"
b10000000100110010110110010010110 &"
1'
#330000
0'
