presentation/verification/simulation_results/integration/tb_asic_top_full_cycle.vcd
$date
	Tue Jul 29 10:47:22 2025
$end
$version
	Icarus Verilog
$end
$timescale
	1ps
$end
$scope module tb_asic_top $end
$var wire 1 ! trng_request $end
$var wire 1 " tb_trng_ready $end
$var wire 32 # tb_trng_data [31:0] $end
$var wire 32 $ tb_out_state_word [31:0] $end
$var wire 1 % tb_out_state_valid $end
$var wire 1 & tb_in_state_ready $end
$var wire 2 ' request_type [1:0] $end
$var wire 1 ( done $end
$var wire 1 ) chunk_request $end
$var wire 5 * chunk_index [4:0] $end
$var wire 1 + busy $end
$var reg 1 , clk $end
$var reg 512 - final_plaintext [511:0] $end
$var reg 512 . intermediate_ciphertext [511:0] $end
$var reg 512 / original_plaintext [511:0] $end
$var reg 1 0 rst_n $end
$var reg 1 1 start $end
$var reg 32 2 tb_chunk_data [31:0] $end
$var reg 2 3 tb_chunk_type [1:0] $end
$var reg 1 4 tb_chunk_valid $end
$var reg 1 5 tb_in_state_valid $end
$var reg 32 6 tb_in_state_word [31:0] $end
$var reg 1 7 tb_out_state_ready $end
$var reg 32 8 test_counter [31:0] $end
$var reg 256 9 test_key [255:0] $end
$var reg 96 : test_nonce [95:0] $end
$var reg 1 ; use_streamed_counter $end
$var reg 1 < use_streamed_key $end
$var reg 1 = use_streamed_nonce $end
$var integer 32 > pass_count [31:0] $end
$var integer 32 ? test_id [31:0] $end
$scope module U_ASIC_TOP $end
$var wire 32 @ chunk [31:0] $end
$var wire 2 A chunk_type [1:0] $end
$var wire 1 4 chunk_valid $end
$var wire 1 , clk $end
$var wire 1 B data_is_from_stream $end
$var wire 1 5 in_state_valid $end
$var wire 32 C in_state_word [31:0] $end
$var wire 1 7 out_state_ready $end
$var wire 1 0 rst_n $end
$var wire 1 1 start $end
$var wire 1 D stream_data_is_valid $end
$var wire 1 ; use_streamed_counter $end
$var wire 1 < use_streamed_key $end
$var wire 1 = use_streamed_nonce $end
$var wire 1 " trng_ready $end
$var wire 32 E trng_data [31:0] $end
$var wire 512 F out_state [511:0] $end
$var wire 32 G data_to_accumulate [31:0] $end
$var wire 1 H data_source_is_ready $end
$var wire 1 I core_done $end
$var wire 1 J core_busy $end
$var parameter 3 K ACQUIRE $end
$var parameter 3 L COMPLETE $end
$var parameter 3 M CORE $end
$var parameter 3 N CORE_WAIT $end
$var parameter 2 O COUNTER $end
$var parameter 3 P IDLE $end
$var parameter 2 Q KEY $end
$var parameter 3 R LOAD_IN $end
$var parameter 2 S NONCE $end
$var parameter 3 T OUTPUT $end
$var reg 2 U acquire_sub_state [1:0] $end
$var reg 1 + busy $end
$var reg 5 V chunk_index [4:0] $end
$var reg 1 ) chunk_request $end
$var reg 1 W core_start $end
$var reg 32 X counter [31:0] $end
$var reg 5 Y current_chunk_id [4:0] $end
$var reg 1 ( done $end
$var reg 3 Z fsm_state [2:0] $end
$var reg 512 [ in_state [511:0] $end
$var reg 4 \ in_state_ptr [3:0] $end
$var reg 1 & in_state_ready $end
$var reg 256 ] key [255:0] $end
$var reg 96 ^ nonce [95:0] $end
$var reg 4 _ out_state_ptr [3:0] $end
$var reg 1 % out_state_valid $end
$var reg 32 ` out_state_word [31:0] $end
$var reg 2 a request_type [1:0] $end
$var reg 32 b temp_counter [31:0] $end
$var reg 256 c temp_key [255:0] $end
$var reg 96 d temp_nonce [95:0] $end
$var reg 1 ! trng_request $end
$scope module chacha_unit $end
$var wire 1 , clk $end
$var wire 32 e counter [31:0] $end
$var wire 256 f key [255:0] $end
$var wire 96 g nonce [95:0] $end
$var wire 512 h plaintext [511:0] $end
$var wire 1 0 rst_n $end
$var wire 1 W start $end
$var wire 32 i diag_out_s9 [31:0] $end
$var wire 32 j diag_out_s8 [31:0] $end
$var wire 32 k diag_out_s7 [31:0] $end
$var wire 32 l diag_out_s6 [31:0] $end
$var wire 32 m diag_out_s5 [31:0] $end
$var wire 32 n diag_out_s4 [31:0] $end
$var wire 32 o diag_out_s3 [31:0] $end
$var wire 32 p diag_out_s2 [31:0] $end
$var wire 32 q diag_out_s15 [31:0] $end
$var wire 32 r diag_out_s14 [31:0] $end
$var wire 32 s diag_out_s13 [31:0] $end
$var wire 32 t diag_out_s12 [31:0] $end
$var wire 32 u diag_out_s11 [31:0] $end
$var wire 32 v diag_out_s10 [31:0] $end
$var wire 32 w diag_out_s1 [31:0] $end
$var wire 32 x diag_out_s0 [31:0] $end
$var wire 32 y col_out_s9 [31:0] $end
$var wire 32 z col_out_s8 [31:0] $end
$var wire 32 { col_out_s7 [31:0] $end
$var wire 32 | col_out_s6 [31:0] $end
$var wire 32 } col_out_s5 [31:0] $end
$var wire 32 ~ col_out_s4 [31:0] $end
$var wire 32 !" col_out_s3 [31:0] $end
$var wire 32 "" col_out_s2 [31:0] $end
$var wire 32 #" col_out_s15 [31:0] $end
$var wire 32 $" col_out_s14 [31:0] $end
$var wire 32 %" col_out_s13 [31:0] $end
$var wire 32 &" col_out_s12 [31:0] $end
$var wire 32 '" col_out_s11 [31:0] $end
$var wire 32 (" col_out_s10 [31:0] $end
$var wire 32 )" col_out_s1 [31:0] $end
$var wire 32 *" col_out_s0 [31:0] $end
$var parameter 32 +" C0 $end
$var parameter 32 ," C1 $end
$var parameter 32 -" C2 $end
$var parameter 32 ." C3 $end
$var parameter 3 /" COMPLETE $end
$var parameter 3 0" IDLE $end
$var parameter 3 1" INIT $end
$var parameter 3 2" OUTPUT $end
$var parameter 3 3" ROUND $end
$var reg 1 J busy $end
$var reg 512 4" ciphertext [511:0] $end
$var reg 1 I done $end
$var reg 3 5" fsm_state [2:0] $end
$var reg 5 6" round_count [4:0] $end
$scope module U_QR_COL_0 $end
$var wire 32 7" in_a [31:0] $end
$var wire 32 8" in_b [31:0] $end
$var wire 32 9" in_c [31:0] $end
$var wire 32 :" in_d [31:0] $end
$var reg 32 ;" out_a [31:0] $end
$var reg 32 <" out_b [31:0] $end
$var reg 32 =" out_c [31:0] $end
$var reg 32 >" out_d [31:0] $end
$scope begin $unm_blk_44 $end
$var reg 32 ?" a [31:0] $end
$var reg 32 @" b [31:0] $end
$var reg 32 A" c [31:0] $end
$var reg 32 B" d [31:0] $end
$upscope $end
$upscope $end
$scope module U_QR_COL_1 $end
$var wire 32 C" in_a [31:0] $end
$var wire 32 D" in_b [31:0] $end
$var wire 32 E" in_c [31:0] $end
$var wire 32 F" in_d [31:0] $end
$var reg 32 G" out_a [31:0] $end
$var reg 32 H" out_b [31:0] $end
$var reg 32 I" out_c [31:0] $end
$var reg 32 J" out_d [31:0] $end
$scope begin $unm_blk_44 $end
$var reg 32 K" a [31:0] $end
$var reg 32 L" b [31:0] $end
$var reg 32 M" c [31:0] $end
$var reg 32 N" d [31:0] $end
$upscope $end
$upscope $end
$scope module U_QR_COL_2 $end
$var wire 32 O" in_a [31:0] $end
$var wire 32 P" in_b [31:0] $end
$var wire 32 Q" in_c [31:0] $end
$var wire 32 R" in_d [31:0] $end
$var reg 32 S" out_a [31:0] $end
$var reg 32 T" out_b [31:0] $end
$var reg 32 U" out_c [31:0] $end
$var reg 32 V" out_d [31:0] $end
$scope begin $unm_blk_44 $end
$var reg 32 W" a [31:0] $end
$var reg 32 X" b [31:0] $end
$var reg 32 Y" c [31:0] $end
$var reg 32 Z" d [31:0] $end
$upscope $end
$upscope $end
$scope module U_QR_COL_3 $end
$var wire 32 [" in_a [31:0] $end
$var wire 32 \" in_b [31:0] $end
$var wire 32 ]" in_c [31:0] $end
$var wire 32 ^" in_d [31:0] $end
$var reg 32 _" out_a [31:0] $end
$var reg 32 `" out_b [31:0] $end
$var reg 32 a" out_c [31:0] $end
$var reg 32 b" out_d [31:0] $end
$scope begin $unm_blk_44 $end
$var reg 32 c" a [31:0] $end
$var reg 32 d" b [31:0] $end
$var reg 32 e" c [31:0] $end
$var reg 32 f" d [31:0] $end
$upscope $end
$upscope $end
$scope module U_QR_DIAG_0 $end
$var wire 32 g" in_a [31:0] $end
$var wire 32 h" in_b [31:0] $end
$var wire 32 i" in_c [31:0] $end
$var wire 32 j" in_d [31:0] $end
$var reg 32 k" out_a [31:0] $end
$var reg 32 l" out_b [31:0] $end
$var reg 32 m" out_c [31:0] $end
$var reg 32 n" out_d [31:0] $end
$scope begin $unm_blk_44 $end
$var reg 32 o" a [31:0] $end
$var reg 32 p" b [31:0] $end
$var reg 32 q" c [31:0] $end
$var reg 32 r" d [31:0] $end
$upscope $end
$upscope $end
$scope module U_QR_DIAG_1 $end
$var wire 32 s" in_a [31:0] $end
$var wire 32 t" in_b [31:0] $end
$var wire 32 u" in_c [31:0] $end
$var wire 32 v" in_d [31:0] $end
$var reg 32 w" out_a [31:0] $end
$var reg 32 x" out_b [31:0] $end
$var reg 32 y" out_c [31:0] $end
$var reg 32 z" out_d [31:0] $end
$scope begin $unm_blk_44 $end
$var reg 32 {" a [31:0] $end
$var reg 32 |" b [31:0] $end
$var reg 32 }" c [31:0] $end
$var reg 32 ~" d [31:0] $end
$upscope $end
$upscope $end
$scope module U_QR_DIAG_2 $end
$var wire 32 !# in_a [31:0] $end
$var wire 32 "# in_b [31:0] $end
$var wire 32 ## in_c [31:0] $end
$var wire 32 $# in_d [31:0] $end
$var reg 32 %# out_a [31:0] $end
$var reg 32 &# out_b [31:0] $end
$var reg 32 '# out_c [31:0] $end
$var reg 32 (# out_d [31:0] $end
$scope begin $unm_blk_44 $end
$var reg 32 )# a [31:0] $end
$var reg 32 *# b [31:0] $end
$var reg 32 +# c [31:0] $end
$var reg 32 ,# d [31:0] $end
$upscope $end
$upscope $end
$scope module U_QR_DIAG_3 $end
$var wire 32 -# in_a [31:0] $end
$var wire 32 .# in_b [31:0] $end
$var wire 32 /# in_c [31:0] $end
$var wire 32 0# in_d [31:0] $end
$var reg 32 1# out_a [31:0] $end
$var reg 32 2# out_b [31:0] $end
$var reg 32 3# out_c [31:0] $end
$var reg 32 4# out_d [31:0] $end
$scope begin $unm_blk_44 $end
$var reg 32 5# a [31:0] $end
$var reg 32 6# b [31:0] $end
$var reg 32 7# c [31:0] $end
$var reg 32 8# d [31:0] $end
$upscope $end
$upscope $end
$scope begin $ivl_for_loop0 $end
$var integer 32 9# i [31:0] $end
$upscope $end
$scope begin $ivl_for_loop1 $end
$var integer 32 :# i [31:0] $end
$upscope $end
$upscope $end
$upscope $end
$scope module U_MOCK_TRNG $end
$var wire 1 , clk $end
$var wire 1 0 rst_n $end
$var wire 1 ! trng_request $end
$var reg 32 ;# internal_counter [31:0] $end
$var reg 32 <# random_number [31:0] $end
$var reg 1 " ready $end
$upscope $end
$scope task stream_in_data $end
$var reg 512 =# data_block [511:0] $end
$scope begin $ivl_for_loop2 $end
$var integer 32 ># i [31:0] $end
$upscope $end
$upscope $end
$scope task stream_in_k_n_c $end
$var reg 32 ?# counter [31:0] $end
$var reg 256 @# key [255:0] $end
$var reg 96 A# nonce [95:0] $end
$scope begin $ivl_for_loop4 $end
$var integer 32 B# i [31:0] $end
$upscope $end
$scope begin $ivl_for_loop5 $end
$var integer 32 C# i [31:0] $end
$upscope $end
$upscope $end
$scope task stream_out_data $end
$var reg 512 D# captured_block [511:0] $end
$scope begin $ivl_for_loop3 $end
$var integer 32 E# i [31:0] $end
$upscope $end
$upscope $end
$upscope $end
$enddefinitions $end
$comment Show the parameter values. $end
$dumpall
b10 3"
b11 2"
b1 1"
b0 0"
b100 /"
b1101011001000000110010101110100 ."
b1111001011000100010110100110010 -"
b110011001000000110010001101110 ,"
b1100001011100000111100001100101 +"
b101 T
b1 S
b10 R
b0 Q
b0 P
b10 O
b100 N
b11 M
b110 L
b1 K
$end
#0
$dumpvars
bx E#
bx D#
bx C#
bx B#
bx A#
bx @#
bx ?#
bx >#
bx =#
b0 <#
b0 ;#
b0 :#
b10000 9#
b0 8#
b0 7#
b0 6#
b0 5#
b0 4#
b0 3#
b0 2#
b0 1#
b0 0#
b0 /#
b0 .#
b0 -#
b0 ,#
b0 +#
b0 *#
b0 )#
b0 (#
b0 '#
b0 &#
b0 %#
b0 $#
b0 ##
b0 "#
b0 !#
b0 ~"
b0 }"
b0 |"
b0 {"
b0 z"
b0 y"
b0 x"
b0 w"
b0 v"
b0 u"
b0 t"
b0 s"
b0 r"
b0 q"
b0 p"
b0 o"
b0 n"
b0 m"
b0 l"
b0 k"
b0 j"
b0 i"
b0 h"
b0 g"
b0 f"
b0 e"
b0 d"
b0 c"
b0 b"
b0 a"
b0 `"
b0 _"
b0 ^"
b0 ]"
b0 \"
b0 ["
b0 Z"
b0 Y"
b0 X"
b0 W"
b0 V"
b0 U"
b0 T"
b0 S"
b0 R"
b0 Q"
b0 P"
b0 O"
b0 N"
b0 M"
b0 L"
b0 K"
b0 J"
b0 I"
b0 H"
b0 G"
b0 F"
b0 E"
b0 D"
b0 C"
b0 B"
b0 A"
b0 @"
b0 ?"
b0 >"
b0 ="
b0 <"
b0 ;"
b0 :"
b0 9"
b0 8"
b0 7"
b0 6"
b0 5"
b0 4"
b0 *"
b0 )"
b0 ("
b0 '"
b0 &"
b0 %"
b0 $"
b0 #"
b0 ""
b0 !"
b0 ~
b0 }
b0 |
b0 {
b0 z
b0 y
b0 x
b0 w
b0 v
b0 u
b0 t
b0 s
b0 r
b0 q
b0 p
b0 o
b0 n
b0 m
b0 l
b0 k
b0 j
b0 i
bx h
b0 g
b0 f
b0 e
b0 d
b0 c
b0 b
b0 a
b0 `
b0 _
b0 ^
b0 ]
b0 \
bx [
b0 Z
b0 Y
b0 X
0W
b0 V
bx U
0J
0I
0H
b0 G
b0 F
b0 E
0D
b0 C
0B
b0 A
b0 @
b0 ?
b0 >
0=
0<
0;
bx :
bx 9
bx 8
07
b0 6
05
04
b0 3
b0 2
01
00
bx /
bx .
bx -
0,
0+
b0 *
0)
0(
b0 '
0&
0%
b0 $
b0 #
0"
0!
$end
#5000
b10000 9#
1,
#10000
0,
#15000
b10000 9#
1,
#20000
0,
10
#25000
1,
#30000
xB
0,
11
b10100000101100001100000011010000 8
b100100011010001010110011110001001101010111100110111101111000011111110110111001011101010011000 :
b1101111010101101101111101110111111001010111111101111000000001101000000010000001000000011000001000000010100000110000001110000100011011110101011011011111011101111110010101111111011110000000011010000000100000010000000110000010000000101000001100000011100001000 9
b10000001000000011000001000000010100000110000001110000100000001001000010100000101100001100000011010000111000001111000100000001000100010010000100110001010000010101000101100001011100011000000110010001101000011011000111000001110100011110000111110010000000100001001000100010001100100100001001010010011000100111001010000010100100101010001010110010110000101101001011100010111100110000001100010011001000110011001101000011010100110110001101110011100000111001001110100011101100111100001111010011111000111111 /
1;
1=
1<
b1 ?
#35000
1B
b0 U
b1 Z
1+
1,
#40000
0,
b0 B#
b10100000101100001100000011010000 ?#
b100100011010001010110011110001001101010111100110111101111000011111110110111001011101010011000 A#
b1101111010101101101111101110111111001010111111101111000000001101000000010000001000000011000001000000010100000110000001110000100011011110101011011011111011101111110010101111111011110000000011010000000100000010000000110000010000000101000001100000011100001000 @#
b0 >#
b10000001000000011000001000000010100000110000001110000100000001001000010100000101100001100000011010000111000001111000100000001000100010010000100110001010000010101000101100001011100011000000110010001101000011011000111000001110100011110000111110010000000100001001000100010001100100100001001010010011000100111001010000010100100101010001010110010110000101101001011100010111100110000001100010011001000110011001101000011010100110110001101110011100000111001001110100011101100111100001111010011111000111111 =#
17
b0 E#
01
#45000
1)
1,
#50000
0,
#55000
1)
1H
1D
b101000001100000011100001000 G
14
b101000001100000011100001000 2
b101000001100000011100001000 @
1,
#60000
0,
#65000
b1 Y
b101000001100000011100001000 c
0)
0H
0D
b1 B#
04
1,
#70000
0,
#75000
b1 *
b1 V
1)
1H
1D
b1000000100000001100000100 G
14
b1000000100000001100000100 2
b1000000100000001100000100 @
1,
#80000
0,
#85000
b10 Y
b100000010000000110000010000000101000001100000011100001000 c
0)
0H
0D
b10 B#
04
1,
#90000
0,
#95000
b10 *
b10 V
1)
1H
1D
b11001010111111101111000000001101 G
14
b11001010111111101111000000001101 2
b11001010111111101111000000001101 @
1,
#100000
0,
#105000
b11 Y
b110010101111111011110000000011010000000100000010000000110000010000000101000001100000011100001000 c
0)
0H
0D
b11 B#
04
1,
#110000
0,
#115000
b11 *
b11 V
1)
1H
1D
b11011110101011011011111011101111 G
14
b11011110101011011011111011101111 2
b11011110101011011011111011101111 @
1,
#120000
0,
#125000
b100 Y
b11011110101011011011111011101111110010101111111011110000000011010000000100000010000000110000010000000101000001100000011100001000 c
0)
0H
0D
b100 B#
04
1,
#130000
0,
#135000
b100 *
b100 V
1)
1H
1D
b101000001100000011100001000 G
14
b101000001100000011100001000 2
b101000001100000011100001000 @
1,
#140000
0,
#145000
b101 Y
b10100000110000001110000100011011110101011011011111011101111110010101111111011110000000011010000000100000010000000110000010000000101000001100000011100001000 c
0)
0H
0D
b101 B#
04
1,
#150000
0,
#155000
b101 *
b101 V
1)
1H
1D
b1000000100000001100000100 G
14
b1000000100000001100000100 2
b1000000100000001100000100 @
1,
#160000
0,
#165000
b110 Y
b10000001000000011000001000000010100000110000001110000100011011110101011011011111011101111110010101111111011110000000011010000000100000010000000110000010000000101000001100000011100001000 c
0)
0H
0D
b110 B#
04
1,
#170000
0,
#175000
b110 *
b110 V
1)
1H
1D
b11001010111111101111000000001101 G
14
b11001010111111101111000000001101 2
b11001010111111101111000000001101 @
1,
#180000
0,
#185000
b111 Y
b11001010111111101111000000001101000000010000001000000011000001000000010100000110000001110000100011011110101011011011111011101111110010101111111011110000000011010000000100000010000000110000010000000101000001100000011100001000 c
0)
0H
0D
b111 B#
04
1,
#190000
0,
#195000
b111 *
b111 V
1)
1H
1D
b11011110101011011011111011101111 G
14
b11011110101011011011111011101111 2
b11011110101011011011111011101111 @
1,
#200000
0,
#205000
b1 U
b0 Y
b11001010111111101111000000001101000000010000001000000011000001000000010100000110000001110000100011011110101011011011111011101111110010101111111011110000000011010000000100000010000000110000010000000101000001100000011100001000 ]
b11001010111111101111000000001101000000010000001000000011000001000000010100000110000001110000100011011110101011011011111011101111110010101111111011110000000011010000000100000010000000110000010000000101000001100000011100001000 f
b1101111010101101101111101110111111001010111111101111000000001101000000010000001000000011000001000000010100000110000001110000100011011110101011011011111011101111110010101111111011110000000011010000000100000010000000110000010000000101000001100000011100001000 c
0)
0H
0D
b0 C#
b1000 B#
04
1,
#210000
0,
#215000
b0 *
b0 V
b1 '
b1 a
1)
1,
#220000
0,
#225000
1)
1H
1D
b11111110110111001011101010011000 G
14
b1 3
b1 A
b11111110110111001011101010011000 2
b11111110110111001011101010011000 @
1,
#230000
0,
#235000
b1 Y
b11111110110111001011101010011000 d
0)
0H
0D
b1 C#
04
1,
#240000
0,
#245000
b1 *
b1 V
1)
1H
1D
b10011010101111001101111011110000 G
14
b10011010101111001101111011110000 2
b10011010101111001101111011110000 @
1,
#250000
0,
#255000
b10 Y
b1001101010111100110111101111000011111110110111001011101010011000 d
0)
0H
0D
b10 C#
04
1,
#260000
0,
#265000
b10 *
b10 V
1)
1H
1D
b10010001101000101011001111000 G
14
b10010001101000101011001111000 2
b10010001101000101011001111000 @
1,
#270000
0,
#275000
b10 U
b0 Y
b1001101010111100110111101111000011111110110111001011101010011000 ^
b1001101010111100110111101111000011111110110111001011101010011000 g
b100100011010001010110011110001001101010111100110111101111000011111110110111001011101010011000 d
0)
0H
0D
b11 C#
04
1,
#280000
0,
#285000
b0 *
b0 V
b10 '
b10 a
1)
1,
#290000
0,
#295000
1)
1H
1D
b10100000101100001100000011010000 G
14
b10 3
b10 A
b10100000101100001100000011010000 2
b10100000101100001100000011010000 @
1,
#300000
0,
#305000
b10 Z
b10100000101100001100000011010000 X
b10100000101100001100000011010000 e
b10100000101100001100000011010000 b
0)
0H
0D
04
1,
#310000
0,
#315000
1&
1,
#320000
0,
#325000
b1 \
bx00111100001111010011111000111111 [
bx00111100001111010011111000111111 h
1&
15
b111100001111010011111000111111 6
b111100001111010011111000111111 C
1,
#330000
0,
#335000
1&
b1 >#
05
1,
#340000
0,
#345000
b10 \
bx0011100000111001001110100011101100111100001111010011111000111111 [
bx0011100000111001001110100011101100111100001111010011111000111111 h
1&
15
b111000001110010011101000111011 6
b111000001110010011101000111011 C
1,
#350000
0,
#355000
1&
b10 >#
05
1,
#360000
0,
#365000
b11 \
bx001101000011010100110110001101110011100000111001001110100011101100111100001111010011111000111111 [
bx001101000011010100110110001101110011100000111001001110100011101100111100001111010011111000111111 h
1&
15
b110100001101010011011000110111 6
b110100001101010011011000110111 C
1,
#370000
0,
#375000
1&
b11 >#
05
1,
#380000
0,
#385000
b100 \
bx00110000001100010011001000110011001101000011010100110110001101110011100000111001001110100011101100111100001111010011111000111111 [
bx00110000001100010011001000110011001101000011010100110110001101110011100000111001001110100011101100111100001111010011111000111111 h
1&
15
b110000001100010011001000110011 6
b110000001100010011001000110011 C
1,
#390000
0,
#395000
1&
b100 >#
05
1,
#400000
0,
#405000
b101 \
bx0010110000101101001011100010111100110000001100010011001000110011001101000011010100110110001101110011100000111001001110100011101100111100001111010011111000111111 [
bx0010110000101101001011100010111100110000001100010011001000110011001101000011010100110110001101110011100000111001001110100011101100111100001111010011111000111111 h
1&
15
b101100001011010010111000101111 6
b101100001011010010111000101111 C
1,
#410000
0,
#415000
1&
b101 >#
05
1,
#420000
0,
#425000
b110 \
bx001010000010100100101010001010110010110000101101001011100010111100110000001100010011001000110011001101000011010100110110001101110011100000111001001110100011101100111100001111010011111000111111 [
bx001010000010100100101010001010110010110000101101001011100010111100110000001100010011001000110011001101000011010100110110001101110011100000111001001110100011101100111100001111010011111000111111 h
1&
15
b101000001010010010101000101011 6
b101000001010010010101000101011 C
1,
#430000
0,
#435000
1&
b110 >#
05
1,
#440000
0,
#445000
b111 \
bx00100100001001010010011000100111001010000010100100101010001010110010110000101101001011100010111100110000001100010011001000110011001101000011010100110110001101110011100000111001001110100011101100111100001111010011111000111111 [
bx00100100001001010010011000100111001010000010100100101010001010110010110000101101001011100010111100110000001100010011001000110011001101000011010100110110001101110011100000111001001110100011101100111100001111010011111000111111 h
1&
15
b100100001001010010011000100111 6
b100100001001010010011000100111 C
1,
#450000
0,
#455000
1&
b111 >#
05
1,
#460000
0,
#465000
b1000 \
bx0010000000100001001000100010001100100100001001010010011000100111001010000010100100101010001010110010110000101101001011100010111100110000001100010011001000110011001101000011010100110110001101110011100000111001001110100011101100111100001111010011111000111111 [
bx0010000000100001001000100010001100100100001001010010011000100111001010000010100100101010001010110010110000101101001011100010111100110000001100010011001000110011001101000011010100110110001101110011100000111001001110100011101100111100001111010011111000111111 h
1&
15
b100000001000010010001000100011 6
b100000001000010010001000100011 C
1,
#470000
0,
#475000
1&
b1000 >#
05
1,
#480000
0,
#485000
b1001 \
bx000111000001110100011110000111110010000000100001001000100010001100100100001001010010011000100111001010000010100100101010001010110010110000101101001011100010111100110000001100010011001000110011001101000011010100110110001101110011100000111001001110100011101100111100001111010011111000111111 [
bx000111000001110100011110000111110010000000100001001000100010001100100100001001010010011000100111001010000010100100101010001010110010110000101101001011100010111100110000001100010011001000110011001101000011010100110110001101110011100000111001001110100011101100111100001111010011111000111111 h
1&
15
b11100000111010001111000011111 6
b11100000111010001111000011111 C
1,
#490000
0,
#495000
1&
b1001 >#
05
1,
#500000
0,
#505000
b1010 \
bx00011000000110010001101000011011000111000001110100011110000111110010000000100001001000100010001100100100001001010010011000100111001010000010100100101010001010110010110000101101001011100010111100110000001100010011001000110011001101000011010100110110001101110011100000111001001110100011101100111100001111010011111000111111 [
bx00011000000110010001101000011011000111000001110100011110000111110010000000100001001000100010001100100100001001010010011000100111001010000010100100101010001010110010110000101101001011100010111100110000001100010011001000110011001101000011010100110110001101110011100000111001001110100011101100111100001111010011111000111111 h
1&
15
b11000000110010001101000011011 6
b11000000110010001101000011011 C
1,
#510000
0,
#515000
1&
b1010 >#
05
1,
#520000
0,
#525000
b1011 \
bx0001010000010101000101100001011100011000000110010001101000011011000111000001110100011110000111110010000000100001001000100010001100100100001001010010011000100111001010000010100100101010001010110010110000101101001011100010111100110000001100010011001000110011001101000011010100110110001101110011100000111001001110100011101100111100001111010011111000111111 [
bx0001010000010101000101100001011100011000000110010001101000011011000111000001110100011110000111110010000000100001001000100010001100100100001001010010011000100111001010000010100100101010001010110010110000101101001011100010111100110000001100010011001000110011001101000011010100110110001101110011100000111001001110100011101100111100001111010011111000111111 h
1&
15
b10100000101010001011000010111 6
b10100000101010001011000010111 C
1,
#530000
0,
#535000
1&
b1011 >#
05
1,
#540000
0,
#545000
b1100 \
bx000100000001000100010010000100110001010000010101000101100001011100011000000110010001101000011011000111000001110100011110000111110010000000100001001000100010001100100100001001010010011000100111001010000010100100101010001010110010110000101101001011100010111100110000001100010011001000110011001101000011010100110110001101110011100000111001001110100011101100111100001111010011111000111111 [
bx000100000001000100010010000100110001010000010101000101100001011100011000000110010001101000011011000111000001110100011110000111110010000000100001001000100010001100100100001001010010011000100111001010000010100100101010001010110010110000101101001011100010111100110000001100010011001000110011001101000011010100110110001101110011100000111001001110100011101100111100001111010011111000111111 h
1&
15
b10000000100010001001000010011 6
b10000000100010001001000010011 C
1,
#550000
0,
#555000
1&
b1100 >#
05
1,
#560000
0,
#565000
b1101 \
bx00001100000011010000111000001111000100000001000100010010000100110001010000010101000101100001011100011000000110010001101000011011000111000001110100011110000111110010000000100001001000100010001100100100001001010010011000100111001010000010100100101010001010110010110000101101001011100010111100110000001100010011001000110011001101000011010100110110001101110011100000111001001110100011101100111100001111010011111000111111 [
bx00001100000011010000111000001111000100000001000100010010000100110001010000010101000101100001011100011000000110010001101000011011000111000001110100011110000111110010000000100001001000100010001100100100001001010010011000100111001010000010100100101010001010110010110000101101001011100010111100110000001100010011001000110011001101000011010100110110001101110011100000111001001110100011101100111100001111010011111000111111 h
1&
15
b1100000011010000111000001111 6
b1100000011010000111000001111 C
1,
#570000
0,
#575000
1&
b1101 >#
05
1,
#580000
0,
#585000
b1110 \
bx0000100000001001000010100000101100001100000011010000111000001111000100000001000100010010000100110001010000010101000101100001011100011000000110010001101000011011000111000001110100011110000111110010000000100001001000100010001100100100001001010010011000100111001010000010100100101010001010110010110000101101001011100010111100110000001100010011001000110011001101000011010100110110001101110011100000111001001110100011101100111100001111010011111000111111 [
bx0000100000001001000010100000101100001100000011010000111000001111000100000001000100010010000100110001010000010101000101100001011100011000000110010001101000011011000111000001110100011110000111110010000000100001001000100010001100100100001001010010011000100111001010000010100100101010001010110010110000101101001011100010111100110000001100010011001000110011001101000011010100110110001101110011100000111001001110100011101100111100001111010011111000111111 h
1&
15
b1000000010010000101000001011 6
b1000000010010000101000001011 C
1,
#590000
0,
#595000
1&
b1110 >#
05
1,
#600000
0,
#605000
b1111 \
bx000001000000010100000110000001110000100000001001000010100000101100001100000011010000111000001111000100000001000100010010000100110001010000010101000101100001011100011000000110010001101000011011000111000001110100011110000111110010000000100001001000100010001100100100001001010010011000100111001010000010100100101010001010110010110000101101001011100010111100110000001100010011001000110011001101000011010100110110001101110011100000111001001110100011101100111100001111010011111000111111 [
bx000001000000010100000110000001110000100000001001000010100000101100001100000011010000111000001111000100000001000100010010000100110001010000010101000101100001011100011000000110010001101000011011000111000001110100011110000111110010000000100001001000100010001100100100001001010010011000100111001010000010100100101010001010110010110000101101001011100010111100110000001100010011001000110011001101000011010100110110001101110011100000111001001110100011101100111100001111010011111000111111 h
1&
15
b100000001010000011000000111 6
b100000001010000011000000111 C
1,
#610000
0,
#615000
1&
b1111 >#
05
1,
#620000
0,
#625000
b11 Z
b0 \
b10000001000000011000001000000010100000110000001110000100000001001000010100000101100001100000011010000111000001111000100000001000100010010000100110001010000010101000101100001011100011000000110010001101000011011000111000001110100011110000111110010000000100001001000100010001100100100001001010010011000100111001010000010100100101010001010110010110000101101001011100010111100110000001100010011001000110011001101000011010100110110001101110011100000111001001110100011101100111100001111010011111000111111 [
b10000001000000011000001000000010100000110000001110000100000001001000010100000101100001100000011010000111000001111000100000001000100010010000100110001010000010101000101100001011100011000000110010001101000011011000111000001110100011110000111110010000000100001001000100010001100100100001001010010011000100111001010000010100100101010001010110010110000101101001011100010111100110000001100010011001000110011001101000011010100110110001101110011100000111001001110100011101100111100001111010011111000111111 h
1&
15
b10000001000000011 6
b10000001000000011 C
1,
#630000
0,
#635000
b100 Z
1W
0&
b10000 >#
05
1,
#640000
0,
