presentation/simulation_results/working_full_test.vcd
$date
	Tue Jul 29 14:12:16 2025
$end
$version
	Icarus Verilog
$end
$timescale
	1ps
$end
$scope module tb_working_full $end
$var wire 1 ! busy $end
$var wire 5 " chunk_index [4:0] $end
$var wire 1 # chunk_request $end
$var wire 1 $ done $end
$var wire 1 % in_state_ready $end
$var wire 1 & out_state_valid $end
$var wire 32 ' out_state_word [31:0] $end
$var wire 2 ( request_type [1:0] $end
$var wire 32 ) trng_data [31:0] $end
$var wire 1 * trng_ready $end
$var wire 1 + trng_request $end
$var reg 32 , chunk [31:0] $end
$var reg 2 - chunk_type [1:0] $end
$var reg 1 . chunk_valid $end
$var reg 1 / clk $end
$var reg 1 0 in_state_valid $end
$var reg 32 1 in_state_word [31:0] $end
$var reg 1 2 out_state_ready $end
$var integer 32 3 output_count [31:0] $end
$var reg 512 4 output_data [511:0] $end
$var reg 512 5 plaintext_data [511:0] $end
$var reg 1 6 rst_n $end
$var reg 1 7 start $end
$var reg 1 8 use_streamed_counter $end
$var reg 1 9 use_streamed_key $end
$var reg 1 : use_streamed_nonce $end
$var integer 32 ; word_count [31:0] $end
$scope module mock_trng $end
$var wire 1 < clk $end
$var wire 1 = rst_n $end
$var wire 1 + trng_request $end
$var reg 32 > internal_counter [31:0] $end
$var reg 32 ? random_number [31:0] $end
$var reg 1 @ ready $end
$upscope $end
$scope module dut $end
$var wire 32 A chunk [31:0] $end
$var wire 2 B chunk_type [1:0] $end
$var wire 1 C chunk_valid $end
$var wire 1 < clk $end
$var wire 1 D core_busy $end
$var wire 512 E core_ciphertext [511:0] $end
$var wire 1 F core_done $end
$var wire 1 G data_is_from_stream $end
$var wire 1 H data_source_is_ready $end
$var wire 32 I data_to_accumulate [31:0] $end
$var wire 1 J in_state_valid $end
$var wire 32 K in_state_word [31:0] $end
$var wire 1 L out_state_ready $end
$var wire 1 = rst_n $end
$var wire 1 M start $end
$var wire 1 N stream_data_is_valid $end
$var wire 32 O trng_data [31:0] $end
$var wire 1 * trng_ready $end
$var wire 1 P use_streamed_counter $end
$var wire 1 Q use_streamed_key $end
$var wire 1 R use_streamed_nonce $end
$var reg 2 S acquire_sub_state [1:0] $end
$var reg 1 T busy $end
$var reg 5 U chunk_index [4:0] $end
$var reg 1 V chunk_request $end
$var reg 1 W core_start $end
$var reg 32 X counter [31:0] $end
$var reg 5 Y current_chunk_id [4:0] $end
$var reg 1 Z done $end
$var reg 3 [ fsm_state [2:0] $end
$var reg 512 \ in_state [511:0] $end
$var reg 4 ] in_state_ptr [3:0] $end
$var reg 1 ^ in_state_ready $end
$var reg 256 _ key [255:0] $end
$var reg 96 ` nonce [95:0] $end
$var reg 512 a out_state [511:0] $end
$var reg 4 b out_state_ptr [3:0] $end
$var reg 1 c out_state_valid $end
$var reg 32 d out_state_word [31:0] $end
$var reg 2 e request_type [1:0] $end
$var reg 32 f temp_counter [31:0] $end
$var reg 256 g temp_key [255:0] $end
$var reg 96 h temp_nonce [95:0] $end
$var reg 1 i trng_request $end
$scope module chacha_unit $end
$var wire 1 < clk $end
$var wire 32 j counter [31:0] $end
$var wire 256 k key [255:0] $end
$var wire 96 l nonce [95:0] $end
$var wire 512 m plaintext [511:0] $end
$var wire 1 = rst_n $end
$var wire 1 n start $end
$var reg 1 o busy $end
$var reg 512 p ciphertext [511:0] $end
$var reg 1 q done $end
$var reg 3 r fsm_state [2:0] $end
$var integer 32 s i [31:0] $end
$var reg 32 t qr_a [31:0] $end
$var reg 32 u qr_b [31:0] $end
$var reg 32 v qr_c [31:0] $end
$var reg 32 w qr_d [31:0] $end
$var reg 32 x qr_out_a [31:0] $end
$var reg 32 y qr_out_b [31:0] $end
$var reg 32 z qr_out_c [31:0] $end
$var reg 32 { qr_out_d [31:0] $end
$var reg 5 | round_count [4:0] $end
$var reg 32 } temp_a [31:0] $end
$var reg 32 ~ temp_b [31:0] $end
$var reg 32 !" temp_c [31:0] $end
$var reg 32 "" temp_d [31:0] $end
$upscope $end
$upscope $end
$upscope $end
$enddefinitions $end
#0
$dumpvars
bx ""
bx !"
bx ~
bx }
b0 |
bx {
bx z
bx y
bx x
bx w
bx v
bx u
bx t
b10000 s
b0 r
0q
b0 p
0o
0n
bx m
b0 l
b0 k
b0 j
0i
b0 h
b0 g
b0 f
b0 e
b0 d
0c
b0 b
bx a
b0 `
b0 _
0^
b0 ]
bx \
b0 [
0Z
b0 Y
b0 X
0W
0V
b0 U
0T
bx S
0R
0Q
0P
b0 O
0N
0M
1L
b0 K
0J
b0 I
0H
0G
0F
b0 E
0D
0C
b0 B
b0 A
0@
b0 ?
b0 >
0=
0<
b0 ;
0:
09
08
07
06
b100010010001000110011010001000101010101100110011101111000100010011001101010101011101111001100110111011110111011111111000000000001000100100010001100110100010001010101011001100111011110001000100110011010101010111011110011001101110111101110111111110000000000010001001000100011001101000100010101010110011001110111100010001001100110101010101110111100110011011101111011101111111100000000000100010010001000110011010001000101010101100110011101111000100010011001101010101011101111001100110111011110111011111111 5
bx 4
b0 3
12
b0 1
00
0/
0.
b0 -
b0 ,
0+
0*
b0 )
b0 (
b0 '
0&
0%
0$
0#
b0 "
0!
$end
#5000
b10000 s
1/
1<
#10000
0/
0<
#15000
b10000 s
1/
1<
#20000
0/
0<
16
1=
#25000
1/
1<
#30000
0/
0<
17
1M
#35000
b0 S
b1 [
1T
1!
1/
1<
#40000
0/
0<
07
0M
#45000
1i
1+
1/
1<
#50000
0/
0<
#55000
1H
b1 I
1@
1*
b1 ?
b1 )
b1 O
b1 >
1i
1+
1/
1<
#60000
0/
0<
#65000
b10 I
b1 Y
b1 g
0i
0+
b10 ?
b10 )
b10 O
b10 >
1@
1*
1/
1<
#70000
0/
0<
#75000
0H
0@
0*
b10 Y
b1000000000000000000000000000000001 g
1/
1<
#80000
0/
0<
#85000
1i
1+
1/
1<
#90000
0/
0<
#95000
1H
b11 I
1@
1*
b11 ?
b11 )
b11 O
b11 >
1i
1+
1/
1<
#100000
0/
0<
#105000
b100 I
b11 Y
b110000000000000000000000000000001000000000000000000000000000000001 g
0i
0+
b100 ?
b100 )
b100 O
b100 >
1@
1*
1/
1<
#110000
0/
0<
#115000
0H
0@
0*
b100 Y
b100000000000000000000000000000000110000000000000000000000000000001000000000000000000000000000000001 g
1/
1<
#120000
0/
0<
#125000
1i
1+
1/
1<
#130000
0/
0<
#135000
1H
b101 I
1@
1*
b101 ?
b101 )
b101 O
b101 >
1i
1+
1/
1<
#140000
0/
0<
#145000
b110 I
b101 Y
b10100000000000000000000000000000100000000000000000000000000000000110000000000000000000000000000001000000000000000000000000000000001 g
0i
0+
b110 ?
b110 )
b110 O
b110 >
1@
1*
1/
1<
#150000
0/
0<
#155000
0H
0@
0*
b110 Y
b1100000000000000000000000000000010100000000000000000000000000000100000000000000000000000000000000110000000000000000000000000000001000000000000000000000000000000001 g
1/
1<
#160000
0/
0<
#165000
1i
1+
1/
1<
#170000
0/
0<
#175000
1H
b111 I
1@
1*
b111 ?
b111 )
b111 O
b111 >
1i
1+
1/
1<
#180000
0/
0<
#185000
b1000 I
b111 Y
b111000000000000000000000000000001100000000000000000000000000000010100000000000000000000000000000100000000000000000000000000000000110000000000000000000000000000001000000000000000000000000000000001 g
0i
0+
b1000 ?
b1000 )
b1000 O
b1000 >
1@
1*
1/
1<
#190000
0/
0<
#195000
0H
0@
0*
b1 S
b0 Y
b111000000000000000000000000000001100000000000000000000000000000010100000000000000000000000000000100000000000000000000000000000000110000000000000000000000000000001000000000000000000000000000000001 _
b111000000000000000000000000000001100000000000000000000000000000010100000000000000000000000000000100000000000000000000000000000000110000000000000000000000000000001000000000000000000000000000000001 k
b100000000000000000000000000000000111000000000000000000000000000001100000000000000000000000000000010100000000000000000000000000000100000000000000000000000000000000110000000000000000000000000000001000000000000000000000000000000001 g
1/
1<
#200000
0/
0<
#205000
1i
1+
1/
1<
#210000
0/
0<
#215000
1H
b1001 I
1@
1*
b1001 ?
b1001 )
b1001 O
b1001 >
1i
1+
1/
1<
#220000
0/
0<
#225000
b1010 I
b1 Y
b1001 h
0i
0+
b1010 ?
b1010 )
b1010 O
b1010 >
1@
1*
1/
1<
#230000
0/
0<
#235000
0H
0@
0*
b10 Y
b101000000000000000000000000000001001 h
1/
1<
#240000
0/
0<
#245000
1i
1+
1/
1<
#250000
0/
0<
#255000
1H
b1011 I
1@
1*
b1011 ?
b1011 )
b1011 O
b1011 >
1i
1+
1/
1<
#260000
0/
0<
#265000
b1100 I
b10 S
b0 Y
b101000000000000000000000000000001001 `
b101000000000000000000000000000001001 l
b10110000000000000000000000000000101000000000000000000000000000001001 h
0i
0+
b1100 ?
b1100 )
b1100 O
b1100 >
1@
1*
1/
1<
#270000
0/
0<
#275000
0H
0@
0*
b10 [
b1100 X
b1100 j
b1100 f
1/
1<
#280000
0/
0<
#285000
1^
1%
1/
1<
#290000
0/
0<
#295000
1^
1%
b1 ;
10
1J
b11001100110111011110111011111111 1
b11001100110111011110111011111111 K
1/
1<
#300000
0/
0<
#305000
b1 ]
bx11001100110111011110111011111111 \
bx11001100110111011110111011111111 m
1^
1%
b10 ;
b10001000100110011010101010111011 1
b10001000100110011010101010111011 K
1/
1<
#310000
0/
0<
#315000
b10 ]
bx1000100010011001101010101011101111001100110111011110111011111111 \
bx1000100010011001101010101011101111001100110111011110111011111111 m
1^
1%
b11 ;
b1000100010101010110011001110111 1
b1000100010101010110011001110111 K
1/
1<
#320000
0/
0<
#325000
b11 ]
bx010001000101010101100110011101111000100010011001101010101011101111001100110111011110111011111111 \
bx010001000101010101100110011101111000100010011001101010101011101111001100110111011110111011111111 m
1^
1%
b100 ;
b100010010001000110011 1
b100010010001000110011 K
1/
1<
#330000
0/
0<
#335000
b100 ]
bx00000000000100010010001000110011010001000101010101100110011101111000100010011001101010101011101111001100110111011110111011111111 \
bx00000000000100010010001000110011010001000101010101100110011101111000100010011001101010101011101111001100110111011110111011111111 m
1^
1%
b101 ;
b11001100110111011110111011111111 1
b11001100110111011110111011111111 K
1/
1<
#340000
0/
0<
#345000
b101 ]
bx1100110011011101111011101111111100000000000100010010001000110011010001000101010101100110011101111000100010011001101010101011101111001100110111011110111011111111 \
bx1100110011011101111011101111111100000000000100010010001000110011010001000101010101100110011101111000100010011001101010101011101111001100110111011110111011111111 m
1^
1%
b110 ;
b10001000100110011010101010111011 1
b10001000100110011010101010111011 K
1/
1<
#350000
0/
0<
#355000
b110 ]
bx100010001001100110101010101110111100110011011101111011101111111100000000000100010010001000110011010001000101010101100110011101111000100010011001101010101011101111001100110111011110111011111111 \
bx100010001001100110101010101110111100110011011101111011101111111100000000000100010010001000110011010001000101010101100110011101111000100010011001101010101011101111001100110111011110111011111111 m
1^
1%
b111 ;
b1000100010101010110011001110111 1
b1000100010101010110011001110111 K
1/
1<
#360000
0/
0<
#365000
b111 ]
bx01000100010101010110011001110111100010001001100110101010101110111100110011011101111011101111111100000000000100010010001000110011010001000101010101100110011101111000100010011001101010101011101111001100110111011110111011111111 \
bx01000100010101010110011001110111100010001001100110101010101110111100110011011101111011101111111100000000000100010010001000110011010001000101010101100110011101111000100010011001101010101011101111001100110111011110111011111111 m
1^
1%
b1000 ;
b100010010001000110011 1
b100010010001000110011 K
1/
1<
#370000
0/
0<
#375000
b1000 ]
bx0000000000010001001000100011001101000100010101010110011001110111100010001001100110101010101110111100110011011101111011101111111100000000000100010010001000110011010001000101010101100110011101111000100010011001101010101011101111001100110111011110111011111111 \
bx0000000000010001001000100011001101000100010101010110011001110111100010001001100110101010101110111100110011011101111011101111111100000000000100010010001000110011010001000101010101100110011101111000100010011001101010101011101111001100110111011110111011111111 m
1^
1%
b1001 ;
b11001100110111011110111011111111 1
b11001100110111011110111011111111 K
1/
1<
#380000
0/
0<
#385000
b1001 ]
bx110011001101110111101110111111110000000000010001001000100011001101000100010101010110011001110111100010001001100110101010101110111100110011011101111011101111111100000000000100010010001000110011010001000101010101100110011101111000100010011001101010101011101111001100110111011110111011111111 \
bx110011001101110111101110111111110000000000010001001000100011001101000100010101010110011001110111100010001001100110101010101110111100110011011101111011101111111100000000000100010010001000110011010001000101010101100110011101111000100010011001101010101011101111001100110111011110111011111111 m
1^
1%
b1010 ;
b10001000100110011010101010111011 1
b10001000100110011010101010111011 K
1/
1<
#390000
0/
0<
#395000
b1010 ]
bx10001000100110011010101010111011110011001101110111101110111111110000000000010001001000100011001101000100010101010110011001110111100010001001100110101010101110111100110011011101111011101111111100000000000100010010001000110011010001000101010101100110011101111000100010011001101010101011101111001100110111011110111011111111 \
bx10001000100110011010101010111011110011001101110111101110111111110000000000010001001000100011001101000100010101010110011001110111100010001001100110101010101110111100110011011101111011101111111100000000000100010010001000110011010001000101010101100110011101111000100010011001101010101011101111001100110111011110111011111111 m
1^
1%
b1011 ;
b1000100010101010110011001110111 1
b1000100010101010110011001110111 K
1/
1<
#400000
0/
0<
#405000
b1011 ]
bx0100010001010101011001100111011110001000100110011010101010111011110011001101110111101110111111110000000000010001001000100011001101000100010101010110011001110111100010001001100110101010101110111100110011011101111011101111111100000000000100010010001000110011010001000101010101100110011101111000100010011001101010101011101111001100110111011110111011111111 \
bx0100010001010101011001100111011110001000100110011010101010111011110011001101110111101110111111110000000000010001001000100011001101000100010101010110011001110111100010001001100110101010101110111100110011011101111011101111111100000000000100010010001000110011010001000101010101100110011101111000100010011001101010101011101111001100110111011110111011111111 m
1^
1%
b1100 ;
b100010010001000110011 1
b100010010001000110011 K
1/
1<
#410000
0/
0<
#415000
b1100 ]
bx000000000001000100100010001100110100010001010101011001100111011110001000100110011010101010111011110011001101110111101110111111110000000000010001001000100011001101000100010101010110011001110111100010001001100110101010101110111100110011011101111011101111111100000000000100010010001000110011010001000101010101100110011101111000100010011001101010101011101111001100110111011110111011111111 \
bx000000000001000100100010001100110100010001010101011001100111011110001000100110011010101010111011110011001101110111101110111111110000000000010001001000100011001101000100010101010110011001110111100010001001100110101010101110111100110011011101111011101111111100000000000100010010001000110011010001000101010101100110011101111000100010011001101010101011101111001100110111011110111011111111 m
1^
1%
b1101 ;
b11001100110111011110111011111111 1
b11001100110111011110111011111111 K
1/
1<
#420000
0/
0<
#425000
b1101 ]
bx11001100110111011110111011111111000000000001000100100010001100110100010001010101011001100111011110001000100110011010101010111011110011001101110111101110111111110000000000010001001000100011001101000100010101010110011001110111100010001001100110101010101110111100110011011101111011101111111100000000000100010010001000110011010001000101010101100110011101111000100010011001101010101011101111001100110111011110111011111111 \
bx11001100110111011110111011111111000000000001000100100010001100110100010001010101011001100111011110001000100110011010101010111011110011001101110111101110111111110000000000010001001000100011001101000100010101010110011001110111100010001001100110101010101110111100110011011101111011101111111100000000000100010010001000110011010001000101010101100110011101111000100010011001101010101011101111001100110111011110111011111111 m
1^
1%
b1110 ;
b10001000100110011010101010111011 1
b10001000100110011010101010111011 K
1/
1<
#430000
0/
0<
#435000
b1110 ]
bx1000100010011001101010101011101111001100110111011110111011111111000000000001000100100010001100110100010001010101011001100111011110001000100110011010101010111011110011001101110111101110111111110000000000010001001000100011001101000100010101010110011001110111100010001001100110101010101110111100110011011101111011101111111100000000000100010010001000110011010001000101010101100110011101111000100010011001101010101011101111001100110111011110111011111111 \
bx1000100010011001101010101011101111001100110111011110111011111111000000000001000100100010001100110100010001010101011001100111011110001000100110011010101010111011110011001101110111101110111111110000000000010001001000100011001101000100010101010110011001110111100010001001100110101010101110111100110011011101111011101111111100000000000100010010001000110011010001000101010101100110011101111000100010011001101010101011101111001100110111011110111011111111 m
1^
1%
b1111 ;
b1000100010101010110011001110111 1
b1000100010101010110011001110111 K
1/
1<
#440000
0/
0<
#445000
b1111 ]
bx010001000101010101100110011101111000100010011001101010101011101111001100110111011110111011111111000000000001000100100010001100110100010001010101011001100111011110001000100110011010101010111011110011001101110111101110111111110000000000010001001000100011001101000100010101010110011001110111100010001001100110101010101110111100110011011101111011101111111100000000000100010010001000110011010001000101010101100110011101111000100010011001101010101011101111001100110111011110111011111111 \
bx010001000101010101100110011101111000100010011001101010101011101111001100110111011110111011111111000000000001000100100010001100110100010001010101011001100111011110001000100110011010101010111011110011001101110111101110111111110000000000010001001000100011001101000100010101010110011001110111100010001001100110101010101110111100110011011101111011101111111100000000000100010010001000110011010001000101010101100110011101111000100010011001101010101011101111001100110111011110111011111111 m
1^
1%
b10000 ;
b100010010001000110011 1
b100010010001000110011 K
1/
1<
#450000
0/
0<
#455000
b11 [
b0 ]
b100010010001000110011010001000101010101100110011101111000100010011001101010101011101111001100110111011110111011111111000000000001000100100010001100110100010001010101011001100111011110001000100110011010101010111011110011001101110111101110111111110000000000010001001000100011001101000100010101010110011001110111100010001001100110101010101110111100110011011101111011101111111100000000000100010010001000110011010001000101010101100110011101111000100010011001101010101011101111001100110111011110111011111111 \
b100010010001000110011010001000101010101100110011101111000100010011001101010101011101111001100110111011110111011111111000000000001000100100010001100110100010001010101011001100111011110001000100110011010101010111011110011001101110111101110111111110000000000010001001000100011001101000100010101010110011001110111100010001001100110101010101110111100110011011101111011101111111100000000000100010010001000110011010001000101010101100110011101111000100010011001101010101011101111001100110111011110111011111111 m
1^
1%
00
0J
1/
1<
#460000
0/
0<
#465000
b100 [
1W
1n
0^
0%
1/
1<
#470000
0/
0<
#475000
b1 r
1o
1D
0W
0n
1/
1<
#480000
0/
0<
#485000
b10 r
1/
1<
#490000
0/
0<
#495000
b1 |
1/
1<
#500000
0/
0<
#505000
b10 |
1/
1<
#510000
0/
0<
#515000
b11 |
1/
1<
#520000
0/
0<
#525000
b100 |
1/
1<
#530000
0/
0<
#535000
b101 |
1/
1<
#540000
0/
0<
#545000
b110 |
1/
1<
#550000
0/
0<
#555000
b111 |
1/
1<
#560000
0/
0<
#565000
b1000 |
1/
1<
#570000
0/
0<
#575000
b1001 |
1/
1<
#580000
0/
0<
#585000
b1010 |
1/
1<
#590000
0/
0<
#595000
b1011 |
1/
1<
#600000
0/
0<
#605000
b1100 |
1/
1<
#610000
0/
0<
#615000
b1101 |
1/
1<
#620000
0/
0<
#625000
b1110 |
1/
1<
#630000
0/
0<
#635000
b1111 |
1/
1<
#640000
0/
0<
#645000
b10000 |
1/
1<
#650000
0/
0<
#655000
b10001 |
1/
1<
#660000
0/
0<
#665000
b10010 |
1/
1<
#670000
0/
0<
#675000
b10011 |
1/
1<
#680000
0/
0<
#685000
b10100 |
1/
1<
#690000
0/
0<
#695000
b11 r
1/
1<
#700000
0/
0<
#705000
b100 r
b100010010001000110011010001000101010101100110011000111000100010011001101010101010100111001100110111011110111011100111000000000001000100100010001100110100010001010101011001100111100110001000100110011010101010110111110011001101110111101110111101010000000000010001001000100011101101000100010101010110011001110001100010001001100110101010101111111100110011011101111011101111110111010110010100011110100100001011101101101001000100111100110101111110111011011001011000111011111100001110001111010001111000100001 p
b100010010001000110011010001000101010101100110011000111000100010011001101010101010100111001100110111011110111011100111000000000001000100100010001100110100010001010101011001100111100110001000100110011010101010110111110011001101110111101110111101010000000000010001001000100011101101000100010101010110011001110001100010001001100110101010101111111100110011011101111011101111110111010110010100011110100100001011101101101001000100111100110101111110111011011001011000111011111100001110001111010001111000100001 E
b10000 s
1/
1<
#710000
0/
0<
#715000
b0 r
0o
0D
1q
1F
1/
1<
#720000
0/
0<
#725000
b101 [
0q
0F
b100010010001000110011010001000101010101100110011000111000100010011001101010101010100111001100110111011110111011100111000000000001000100100010001100110100010001010101011001100111100110001000100110011010101010110111110011001101110111101110111101010000000000010001001000100011101101000100010101010110011001110001100010001001100110101010101111111100110011011101111011101111110111010110010100011110100100001011101101101001000100111100110101111110111011011001011000111011111100001110001111010001111000100001 a
1/
1<
#730000
0/
0<
#735000
b1 b
1c
1&
b1110001111010001111000100001 d
b1110001111010001111000100001 '
1/
1<
#740000
0/
0<
#745000
b10 b
b11101110110110010110001110111111 d
b11101110110110010110001110111111 '
1c
1&
b1 3
bx00001110001111010001111000100001 4
1/
1<
#750000
0/
0<
#755000
b11 b
b10110110100100010011110011010111 d
b10110110100100010011110011010111 '
1c
1&
b10 3
bx1110111011011001011000111011111100001110001111010001111000100001 4
1/
1<
#760000
0/
0<
#765000
b100 b
b11010110010100011110100100001011 d
b11010110010100011110100100001011 '
1c
1&
b11 3
bx101101101001000100111100110101111110111011011001011000111011111100001110001111010001111000100001 4
1/
1<
#770000
0/
0<
#775000
b101 b
b11001100110111011110111011111101 d
b11001100110111011110111011111101 '
1c
1&
b100 3
bx11010110010100011110100100001011101101101001000100111100110101111110111011011001011000111011111100001110001111010001111000100001 4
1/
1<
#780000
0/
0<
#785000
b110 b
b10001000100110011010101010111111 d
b10001000100110011010101010111111 '
1c
1&
b101 3
bx1100110011011101111011101111110111010110010100011110100100001011101101101001000100111100110101111110111011011001011000111011111100001110001111010001111000100001 4
1/
1<
#790000
0/
0<
#795000
b111 b
b1000100010101010110011001110001 d
b1000100010101010110011001110001 '
1c
1&
b110 3
bx100010001001100110101010101111111100110011011101111011101111110111010110010100011110100100001011101101101001000100111100110101111110111011011001011000111011111100001110001111010001111000100001 4
1/
1<
#800000
0/
0<
#805000
b1000 b
b100010010001000111011 d
b100010010001000111011 '
1c
1&
b111 3
bx01000100010101010110011001110001100010001001100110101010101111111100110011011101111011101111110111010110010100011110100100001011101101101001000100111100110101111110111011011001011000111011111100001110001111010001111000100001 4
1/
1<
#810000
0/
0<
#815000
b1001 b
b11001100110111011110111011110101 d
b11001100110111011110111011110101 '
1c
1&
b1000 3
bx0000000000010001001000100011101101000100010101010110011001110001100010001001100110101010101111111100110011011101111011101111110111010110010100011110100100001011101101101001000100111100110101111110111011011001011000111011111100001110001111010001111000100001 4
1/
1<
#820000
0/
0<
#825000
b1010 b
b10001000100110011010101010110111 d
b10001000100110011010101010110111 '
1c
1&
b1001 3
bx110011001101110111101110111101010000000000010001001000100011101101000100010101010110011001110001100010001001100110101010101111111100110011011101111011101111110111010110010100011110100100001011101101101001000100111100110101111110111011011001011000111011111100001110001111010001111000100001 4
1/
1<
#830000
0/
0<
#835000
b1011 b
b1000100010101010110011001111001 d
b1000100010101010110011001111001 '
1c
1&
b1010 3
bx10001000100110011010101010110111110011001101110111101110111101010000000000010001001000100011101101000100010101010110011001110001100010001001100110101010101111111100110011011101111011101111110111010110010100011110100100001011101101101001000100111100110101111110111011011001011000111011111100001110001111010001111000100001 4
1/
1<
#840000
0/
0<
#845000
b1100 b
b100010010001000110011 d
b100010010001000110011 '
1c
1&
b1011 3
bx0100010001010101011001100111100110001000100110011010101010110111110011001101110111101110111101010000000000010001001000100011101101000100010101010110011001110001100010001001100110101010101111111100110011011101111011101111110111010110010100011110100100001011101101101001000100111100110101111110111011011001011000111011111100001110001111010001111000100001 4
1/
1<
#850000
0/
0<
#855000
b1101 b
b11001100110111011110111011100111 d
b11001100110111011110111011100111 '
1c
1&
b1100 3
bx000000000001000100100010001100110100010001010101011001100111100110001000100110011010101010110111110011001101110111101110111101010000000000010001001000100011101101000100010101010110011001110001100010001001100110101010101111111100110011011101111011101111110111010110010100011110100100001011101101101001000100111100110101111110111011011001011000111011111100001110001111010001111000100001 4
1/
1<
#860000
0/
0<
#865000
b1110 b
b10001000100110011010101010101001 d
b10001000100110011010101010101001 '
1c
1&
b1101 3
bx11001100110111011110111011100111000000000001000100100010001100110100010001010101011001100111100110001000100110011010101010110111110011001101110111101110111101010000000000010001001000100011101101000100010101010110011001110001100010001001100110101010101111111100110011011101111011101111110111010110010100011110100100001011101101101001000100111100110101111110111011011001011000111011111100001110001111010001111000100001 4
1/
1<
#870000
0/
0<
#875000
b1111 b
b1000100010101010110011001100011 d
b1000100010101010110011001100011 '
1c
1&
b1110 3
bx1000100010011001101010101010100111001100110111011110111011100111000000000001000100100010001100110100010001010101011001100111100110001000100110011010101010110111110011001101110111101110111101010000000000010001001000100011101101000100010101010110011001110001100010001001100110101010101111111100110011011101111011101111110111010110010100011110100100001011101101101001000100111100110101111110111011011001011000111011111100001110001111010001111000100001 4
1/
1<
#880000
0/
0<
#885000
b110 [
b0 b
b100010010001000110011 d
b100010010001000110011 '
1c
1&
b1111 3
bx010001000101010101100110011000111000100010011001101010101010100111001100110111011110111011100111000000000001000100100010001100110100010001010101011001100111100110001000100110011010101010110111110011001101110111101110111101010000000000010001001000100011101101000100010101010110011001110001100010001001100110101010101111111100110011011101111011101111110111010110010100011110100100001011101101101001000100111100110101111110111011011001011000111011111100001110001111010001111000100001 4
1/
1<
#890000
0/
0<
#895000
b0 [
0T
0!
1Z
1$
0c
0&
b10000 3
b100010010001000110011010001000101010101100110011000111000100010011001101010101010100111001100110111011110111011100111000000000001000100100010001100110100010001010101011001100111100110001000100110011010101010110111110011001101110111101110111101010000000000010001001000100011101101000100010101010110011001110001100010001001100110101010101111111100110011011101111011101111110111010110010100011110100100001011101101101001000100111100110101111110111011011001011000111011111100001110001111010001111000100001 4
1/
1<
